rm: cannot lstat `/f/New_Prime_08_08_2014/KeilCompiledLib/FileSytem_SdCard/prime-framework/lib/at90can128/Debug': No such file or directory
make: [Clean] Error 1 (ignored)
mkdir: cannot create directory `/f/New_Prime_08_08_2014/KeilCompiledLib/FileSytem_SdCard/prime-framework/common/obj': File exists
make: [pf_common_mkdir] Error 1 (ignored)
In file included from f:/New_Prime_08_08_2014/KeilCompiledLib/FileSytem_SdCard/prime-framework/include/prime_framework.h:17,
                 from f:/New_Prime_08_08_2014/KeilCompiledLib/FileSytem_SdCard/prime-framework/common/src/prime_framework.c:1:
f:/New_Prime_08_08_2014/KeilCompiledLib/FileSytem_SdCard/prime-framework/common/include/prime_compiler.h:65:1: warning: "PF_C_STATIC_INLINE" redefined
f:/New_Prime_08_08_2014/KeilCompiledLib/FileSytem_SdCard/prime-framework/common/include/prime_compiler.h:53:1: warning: this is the location of the previous definition
f:/New_Prime_08_08_2014/KeilCompiledLib/FileSytem_SdCard/prime-framework/common/src/prime_framework.c:5:3: warning: #warning Prime Framework Debug Version
f:/New_Prime_08_08_2014/KeilCompiledLib/FileSytem_SdCard/prime-framework/common/src/prime_framework.c:11:3: warning: #warning Little Endian Platform
f:/New_Prime_08_08_2014/KeilCompiledLib/FileSytem_SdCard/prime-framework/common/src/prime_framework.c:26:4: warning: #warning "USING GNU COMPILER"
f:/New_Prime_08_08_2014/KeilCompiledLib/FileSytem_SdCard/prime-framework/common/src/prime_framework.c:39:3: warning: #warning PF_USE_ADC
f:/New_Prime_08_08_2014/KeilCompiledLib/FileSytem_SdCard/prime-framework/common/src/prime_framework.c:44:2: warning: #warning PF_USE_EINT0
f:/New_Prime_08_08_2014/KeilCompiledLib/FileSytem_SdCard/prime-framework/common/src/prime_framework.c:47:2: warning: #warning PF_USE_EINT1
f:/New_Prime_08_08_2014/KeilCompiledLib/FileSytem_SdCard/prime-framework/common/src/prime_framework.c:50:2: warning: #warning PF_USE_EINT2
f:/New_Prime_08_08_2014/KeilCompiledLib/FileSytem_SdCard/prime-framework/common/src/prime_framework.c:53:2: warning: #warning PF_USE_EINT3
f:/New_Prime_08_08_2014/KeilCompiledLib/FileSytem_SdCard/prime-framework/common/src/prime_framework.c:57:2: warning: #warning PF_USE_UART0
f:/New_Prime_08_08_2014/KeilCompiledLib/FileSytem_SdCard/prime-framework/common/src/prime_framework.c:60:2: warning: #warning PF_USE_UART1
f:/New_Prime_08_08_2014/KeilCompiledLib/FileSytem_SdCard/prime-framework/common/src/prime_framework.c:63:2: warning: #warning PF_USE_UART2
f:/New_Prime_08_08_2014/KeilCompiledLib/FileSytem_SdCard/prime-framework/common/src/prime_framework.c:66:2: warning: #warning PF_USE_UART3
f:/New_Prime_08_08_2014/KeilCompiledLib/FileSytem_SdCard/prime-framework/common/src/prime_framework.c:70:2: warning: #warning PF_USE_SPI0
f:/New_Prime_08_08_2014/KeilCompiledLib/FileSytem_SdCard/prime-framework/common/src/prime_framework.c:73:2: warning: #warning PF_USE_SPI1
f:/New_Prime_08_08_2014/KeilCompiledLib/FileSytem_SdCard/prime-framework/common/src/prime_framework.c:77:2: warning: #warning PF_USE_I2C0
f:/New_Prime_08_08_2014/KeilCompiledLib/FileSytem_SdCard/prime-framework/common/src/prime_framework.c:80:2: warning: #warning PF_USE_I2C1
f:/New_Prime_08_08_2014/KeilCompiledLib/FileSytem_SdCard/prime-framework/common/src/prime_framework.c:83:2: warning: #warning PF_USE_I2C2
f:/New_Prime_08_08_2014/KeilCompiledLib/FileSytem_SdCard/prime-framework/common/src/prime_framework.c:87:2: warning: #warning PF_USE_CAN1
f:/New_Prime_08_08_2014/KeilCompiledLib/FileSytem_SdCard/prime-framework/common/src/prime_framework.c:90:2: warning: #warning PF_USE_CAN2
f:/New_Prime_08_08_2014/KeilCompiledLib/FileSytem_SdCard/prime-framework/common/src/prime_framework.c:94:2: warning: #warning PF_USE_TIMER0
f:/New_Prime_08_08_2014/KeilCompiledLib/FileSytem_SdCard/prime-framework/common/src/prime_framework.c:97:2: warning: #warning PF_USE_TIMER1
f:/New_Prime_08_08_2014/KeilCompiledLib/FileSytem_SdCard/prime-framework/common/src/prime_framework.c:100:2: warning: #warning PF_USE_TIMER3
f:/New_Prime_08_08_2014/KeilCompiledLib/FileSytem_SdCard/prime-framework/common/src/prime_framework.c:103:2: warning: #warning PF_USE_TIMER4
f:/New_Prime_08_08_2014/KeilCompiledLib/FileSytem_SdCard/prime-framework/common/src/prime_framework.c:107:2: warning: #warning PF_USE_PWM
f:/New_Prime_08_08_2014/KeilCompiledLib/FileSytem_SdCard/prime-framework/common/src/prime_framework.c:111:2: warning: #warning PF_USE_RIT
f:/New_Prime_08_08_2014/KeilCompiledLib/FileSytem_SdCard/prime-framework/common/src/prime_framework.c:115:2: warning: #warning PF_USE_RIT
f:/New_Prime_08_08_2014/KeilCompiledLib/FileSytem_SdCard/prime-framework/common/src/prime_framework.c:119:2: warning: #warning PF_USE_SYSTICK
f:/New_Prime_08_08_2014/KeilCompiledLib/FileSytem_SdCard/prime-framework/common/src/prime_framework.c:125:3: warning: #warning PF_ADC_DEBUG
f:/New_Prime_08_08_2014/KeilCompiledLib/FileSytem_SdCard/prime-framework/common/src/prime_framework.c:129:2: warning: #warning PF_EINT0_DEBUG
f:/New_Prime_08_08_2014/KeilCompiledLib/FileSytem_SdCard/prime-framework/common/src/prime_framework.c:132:2: warning: #warning PF_EINT1_DEBUG
f:/New_Prime_08_08_2014/KeilCompiledLib/FileSytem_SdCard/prime-framework/common/src/prime_framework.c:135:2: warning: #warning PF_EINT2_DEBUG
f:/New_Prime_08_08_2014/KeilCompiledLib/FileSytem_SdCard/prime-framework/common/src/prime_framework.c:138:2: warning: #warning PF_EINT3_DEBUG
f:/New_Prime_08_08_2014/KeilCompiledLib/FileSytem_SdCard/prime-framework/common/src/prime_framework.c:142:2: warning: #warning PF_UART0_DEBUG
f:/New_Prime_08_08_2014/KeilCompiledLib/FileSytem_SdCard/prime-framework/common/src/prime_framework.c:145:2: warning: #warning PF_UART1_DEBUG
f:/New_Prime_08_08_2014/KeilCompiledLib/FileSytem_SdCard/prime-framework/common/src/prime_framework.c:148:2: warning: #warning PF_UART2_DEBUG
f:/New_Prime_08_08_2014/KeilCompiledLib/FileSytem_SdCard/prime-framework/common/src/prime_framework.c:151:2: warning: #warning PF_UART3_DEBUG
f:/New_Prime_08_08_2014/KeilCompiledLib/FileSytem_SdCard/prime-framework/common/src/prime_framework.c:156:2: warning: #warning PF_SPI0_DEBUG
f:/New_Prime_08_08_2014/KeilCompiledLib/FileSytem_SdCard/prime-framework/common/src/prime_framework.c:159:2: warning: #warning PF_SPI1_DEBUG
f:/New_Prime_08_08_2014/KeilCompiledLib/FileSytem_SdCard/prime-framework/common/src/prime_framework.c:163:2: warning: #warning PF_I2C0_DEBUG
f:/New_Prime_08_08_2014/KeilCompiledLib/FileSytem_SdCard/prime-framework/common/src/prime_framework.c:166:2: warning: #warning PF_I2C1_DEBUG
f:/New_Prime_08_08_2014/KeilCompiledLib/FileSytem_SdCard/prime-framework/common/src/prime_framework.c:169:2: warning: #warning PF_I2C2_DEBUG
f:/New_Prime_08_08_2014/KeilCompiledLib/FileSytem_SdCard/prime-framework/common/src/prime_framework.c:173:2: warning: #warning PF_CAN_DEBUG
f:/New_Prime_08_08_2014/KeilCompiledLib/FileSytem_SdCard/prime-framework/common/src/prime_framework.c:176:2: warning: #warning PF_CAN1_DEBUG
f:/New_Prime_08_08_2014/KeilCompiledLib/FileSytem_SdCard/prime-framework/common/src/prime_framework.c:179:2: warning: #warning PF_CAN2_DEBUG
f:/New_Prime_08_08_2014/KeilCompiledLib/FileSytem_SdCard/prime-framework/common/src/prime_framework.c:183:2: warning: #warning PF_TIMER0_DEBUG
f:/New_Prime_08_08_2014/KeilCompiledLib/FileSytem_SdCard/prime-framework/common/src/prime_framework.c:186:2: warning: #warning PF_TIMER1_DEBUG
f:/New_Prime_08_08_2014/KeilCompiledLib/FileSytem_SdCard/prime-framework/common/src/prime_framework.c:189:2: warning: #warning PF_TIMER3_DEBUG
f:/New_Prime_08_08_2014/KeilCompiledLib/FileSytem_SdCard/prime-framework/common/src/prime_framework.c:192:2: warning: #warning PF_TIMER4_DEBUG
f:/New_Prime_08_08_2014/KeilCompiledLib/FileSytem_SdCard/prime-framework/common/src/prime_framework.c:197:2: warning: #warning PF_PWM_DEBUG
f:/New_Prime_08_08_2014/KeilCompiledLib/FileSytem_SdCard/prime-framework/common/src/prime_framework.c:201:2: warning: #warning PF_RIT_DEBUG
f:/New_Prime_08_08_2014/KeilCompiledLib/FileSytem_SdCard/prime-framework/common/src/prime_framework.c:205:2: warning: #warning PF_RIT_DEBUG
f:/New_Prime_08_08_2014/KeilCompiledLib/FileSytem_SdCard/prime-framework/common/src/prime_framework.c:209:2: warning: #warning PF_SYSCLK_DEBUG
f:/New_Prime_08_08_2014/KeilCompiledLib/FileSytem_SdCard/prime-framework/common/src/prime_framework.c:213:2: warning: #warning PF_SYSTICK_DEBUG
f:/New_Prime_08_08_2014/KeilCompiledLib/FileSytem_SdCard/prime-framework/common/src/prime_framework.c:218:2: warning: #warning PF_A3977_DEBUG
f:/New_Prime_08_08_2014/KeilCompiledLib/FileSytem_SdCard/prime-framework/common/src/prime_framework.c:221:2: warning: #warning PF_L6470_DEBUG
f:/New_Prime_08_08_2014/KeilCompiledLib/FileSytem_SdCard/prime-framework/common/src/prime_framework.c:224:2: warning: #warning PF_CHEETAH_DEBUG
f:/New_Prime_08_08_2014/KeilCompiledLib/FileSytem_SdCard/prime-framework/common/src/prime_framework.c:227:2: warning: #warning PF_LS7366_DEBUG
f:/New_Prime_08_08_2014/KeilCompiledLib/FileSytem_SdCard/prime-framework/common/src/prime_framework.c:230:2: warning: #warning PF_GP2Y0A02_DEBUG
f:/New_Prime_08_08_2014/KeilCompiledLib/FileSytem_SdCard/prime-framework/common/src/prime_framework.c:233:2: warning: #warning PF_GP2Y0A21_DEBUG
f:/New_Prime_08_08_2014/KeilCompiledLib/FileSytem_SdCard/prime-framework/common/src/prime_framework.c:236:2: warning: #warning PF_GP2Y0A710_DEBUG
f:/New_Prime_08_08_2014/KeilCompiledLib/FileSytem_SdCard/prime-framework/common/src/prime_framework.c:239:2: warning: #warning PF_GPS_DEBUG
f:/New_Prime_08_08_2014/KeilCompiledLib/FileSytem_SdCard/prime-framework/common/src/prime_framework.c:242:2: warning: #warning PF_ULTRASONIC_DEBUG
f:/New_Prime_08_08_2014/KeilCompiledLib/FileSytem_SdCard/prime-framework/common/src/prime_framework.c:245:2: warning: #warning PF_VCNL4000_DEBUG
f:/New_Prime_08_08_2014/KeilCompiledLib/FileSytem_SdCard/prime-framework/common/src/prime_framework.c:248:2: warning: #warning PF_MPU6050_DEBUG
f:/New_Prime_08_08_2014/KeilCompiledLib/FileSytem_SdCard/prime-framework/common/src/prime_framework.c:251:2: warning: #warning PF_LSM303_DEBUG
f:/New_Prime_08_08_2014/KeilCompiledLib/FileSytem_SdCard/prime-framework/common/src/prime_framework.c:254:2: warning: #warning PF_BLUETOOTH_DEBUG
f:/New_Prime_08_08_2014/KeilCompiledLib/FileSytem_SdCard/prime-framework/common/src/prime_framework.c:257:2: warning: #warning PF_TCS230_DEBUG
f:/New_Prime_08_08_2014/KeilCompiledLib/FileSytem_SdCard/prime-framework/common/src/prime_framework.c:266:2: warning: #warning PF_UTILS_DEBUG
mkdir: cannot create directory `/f/New_Prime_08_08_2014/KeilCompiledLib/FileSytem_SdCard/prime-framework/utils/obj': File exists
make: [pf_utils_mkdir] Error 1 (ignored)
In file included from f:/New_Prime_08_08_2014/KeilCompiledLib/FileSytem_SdCard/prime-framework/include/prime_framework.h:17,
                 from f:/New_Prime_08_08_2014/KeilCompiledLib/FileSytem_SdCard/prime-framework/utils/src/prime_utils.c:1:
f:/New_Prime_08_08_2014/KeilCompiledLib/FileSytem_SdCard/prime-framework/common/include/prime_compiler.h:65:1: warning: "PF_C_STATIC_INLINE" redefined
f:/New_Prime_08_08_2014/KeilCompiledLib/FileSytem_SdCard/prime-framework/common/include/prime_compiler.h:53:1: warning: this is the location of the previous definition
f:/New_Prime_08_08_2014/KeilCompiledLib/FileSytem_SdCard/prime-framework/utils/src/prime_utils.c:6: warning: pointer targets in initialization differ in signedness
f:/New_Prime_08_08_2014/KeilCompiledLib/FileSytem_SdCard/prime-framework/utils/src/prime_utils.c:7: warning: pointer targets in initialization differ in signedness
f:/New_Prime_08_08_2014/KeilCompiledLib/FileSytem_SdCard/prime-framework/utils/src/prime_utils.c:8: warning: pointer targets in initialization differ in signedness
f:/New_Prime_08_08_2014/KeilCompiledLib/FileSytem_SdCard/prime-framework/utils/src/prime_utils.c:9: warning: pointer targets in initialization differ in signedness
f:/New_Prime_08_08_2014/KeilCompiledLib/FileSytem_SdCard/prime-framework/utils/src/prime_utils.c:10: warning: pointer targets in initialization differ in signedness
f:/New_Prime_08_08_2014/KeilCompiledLib/FileSytem_SdCard/prime-framework/utils/src/prime_utils.c:11: warning: pointer targets in initialization differ in signedness
f:/New_Prime_08_08_2014/KeilCompiledLib/FileSytem_SdCard/prime-framework/utils/src/prime_utils.c:12: warning: pointer targets in initialization differ in signedness
f:/New_Prime_08_08_2014/KeilCompiledLib/FileSytem_SdCard/prime-framework/utils/src/prime_utils.c:13: warning: pointer targets in initialization differ in signedness
f:/New_Prime_08_08_2014/KeilCompiledLib/FileSytem_SdCard/prime-framework/utils/src/prime_utils.c:14: warning: pointer targets in initialization differ in signedness
f:/New_Prime_08_08_2014/KeilCompiledLib/FileSytem_SdCard/prime-framework/utils/src/prime_utils.c:15: warning: pointer targets in initialization differ in signedness
f:/New_Prime_08_08_2014/KeilCompiledLib/FileSytem_SdCard/prime-framework/utils/src/prime_utils.c:16: warning: pointer targets in initialization differ in signedness
f:/New_Prime_08_08_2014/KeilCompiledLib/FileSytem_SdCard/prime-framework/utils/src/prime_utils.c:17: warning: pointer targets in initialization differ in signedness
f:/New_Prime_08_08_2014/KeilCompiledLib/FileSytem_SdCard/prime-framework/utils/src/prime_utils.c:18: warning: pointer targets in initialization differ in signedness
f:/New_Prime_08_08_2014/KeilCompiledLib/FileSytem_SdCard/prime-framework/utils/src/prime_utils.c:19: warning: pointer targets in initialization differ in signedness
f:/New_Prime_08_08_2014/KeilCompiledLib/FileSytem_SdCard/prime-framework/utils/src/prime_utils.c:20: warning: pointer targets in initialization differ in signedness
f:/New_Prime_08_08_2014/KeilCompiledLib/FileSytem_SdCard/prime-framework/utils/src/prime_utils.c:21: warning: pointer targets in initialization differ in signedness
f:/New_Prime_08_08_2014/KeilCompiledLib/FileSytem_SdCard/prime-framework/utils/src/prime_utils.c:22: warning: pointer targets in initialization differ in signedness
f:/New_Prime_08_08_2014/KeilCompiledLib/FileSytem_SdCard/prime-framework/utils/src/prime_utils.c:23: warning: pointer targets in initialization differ in signedness
f:/New_Prime_08_08_2014/KeilCompiledLib/FileSytem_SdCard/prime-framework/utils/src/prime_utils.c:24: warning: pointer targets in initialization differ in signedness
f:/New_Prime_08_08_2014/KeilCompiledLib/FileSytem_SdCard/prime-framework/utils/src/prime_utils.c:25: warning: pointer targets in initialization differ in signedness
f:/New_Prime_08_08_2014/KeilCompiledLib/FileSytem_SdCard/prime-framework/utils/src/prime_utils.c:26: warning: pointer targets in initialization differ in signedness
f:/New_Prime_08_08_2014/KeilCompiledLib/FileSytem_SdCard/prime-framework/utils/src/prime_utils.c:27: warning: pointer targets in initialization differ in signedness
f:/New_Prime_08_08_2014/KeilCompiledLib/FileSytem_SdCard/prime-framework/utils/src/prime_utils.c:28: warning: pointer targets in initialization differ in signedness
f:/New_Prime_08_08_2014/KeilCompiledLib/FileSytem_SdCard/prime-framework/utils/src/prime_utils.c:29: warning: pointer targets in initialization differ in signedness
f:/New_Prime_08_08_2014/KeilCompiledLib/FileSytem_SdCard/prime-framework/utils/src/prime_utils.c:30: warning: pointer targets in initialization differ in signedness
f:/New_Prime_08_08_2014/KeilCompiledLib/FileSytem_SdCard/prime-framework/utils/src/prime_utils.c:31: warning: pointer targets in initialization differ in signedness
f:/New_Prime_08_08_2014/KeilCompiledLib/FileSytem_SdCard/prime-framework/utils/src/prime_utils.c:32: warning: pointer targets in initialization differ in signedness
f:/New_Prime_08_08_2014/KeilCompiledLib/FileSytem_SdCard/prime-framework/utils/src/prime_utils.c:34: warning: pointer targets in initialization differ in signedness
In file included from f:/New_Prime_08_08_2014/KeilCompiledLib/FileSytem_SdCard/prime-framework/include/prime_framework.h:17,
                 from f:/New_Prime_08_08_2014/KeilCompiledLib/FileSytem_SdCard/prime-framework/utils/src/prime_string.c:1:
f:/New_Prime_08_08_2014/KeilCompiledLib/FileSytem_SdCard/prime-framework/common/include/prime_compiler.h:65:1: warning: "PF_C_STATIC_INLINE" redefined
f:/New_Prime_08_08_2014/KeilCompiledLib/FileSytem_SdCard/prime-framework/common/include/prime_compiler.h:53:1: warning: this is the location of the previous definition
In file included from f:/New_Prime_08_08_2014/KeilCompiledLib/FileSytem_SdCard/prime-framework/include/prime_framework.h:17,
                 from f:/New_Prime_08_08_2014/KeilCompiledLib/FileSytem_SdCard/prime-framework/utils/src/prime_delay.c:1:
f:/New_Prime_08_08_2014/KeilCompiledLib/FileSytem_SdCard/prime-framework/common/include/prime_compiler.h:65:1: warning: "PF_C_STATIC_INLINE" redefined
f:/New_Prime_08_08_2014/KeilCompiledLib/FileSytem_SdCard/prime-framework/common/include/prime_compiler.h:53:1: warning: this is the location of the previous definition
In file included from f:/New_Prime_08_08_2014/KeilCompiledLib/FileSytem_SdCard/prime-framework/include/prime_framework.h:17,
                 from f:/New_Prime_08_08_2014/KeilCompiledLib/FileSytem_SdCard/prime-framework/nativehardware/at90can128/src/prime_adc.c:1:
f:/New_Prime_08_08_2014/KeilCompiledLib/FileSytem_SdCard/prime-framework/common/include/prime_compiler.h:65:1: warning: "PF_C_STATIC_INLINE" redefined
f:/New_Prime_08_08_2014/KeilCompiledLib/FileSytem_SdCard/prime-framework/common/include/prime_compiler.h:53:1: warning: this is the location of the previous definition
f:/New_Prime_08_08_2014/KeilCompiledLib/FileSytem_SdCard/prime-framework/nativehardware/at90can128/src/prime_adc.c: In function 'pfAdcGetVoltageSingleConversion':
f:/New_Prime_08_08_2014/KeilCompiledLib/FileSytem_SdCard/prime-framework/nativehardware/at90can128/src/prime_adc.c:244: warning: passing argument 2 of 'pfAdcSingleConversion' from incompatible pointer type
f:/New_Prime_08_08_2014/KeilCompiledLib/FileSytem_SdCard/prime-framework/nativehardware/at90can128/src/prime_adc.c: At top level:
f:/New_Prime_08_08_2014/KeilCompiledLib/FileSytem_SdCard/prime-framework/nativehardware/at90can128/src/prime_adc.c:9: warning: 'adcCfg' defined but not used
In file included from f:/New_Prime_08_08_2014/KeilCompiledLib/FileSytem_SdCard/prime-framework/include/prime_framework.h:17,
                 from f:/New_Prime_08_08_2014/KeilCompiledLib/FileSytem_SdCard/prime-framework/nativehardware/at90can128/src/prime_can.c:1:
f:/New_Prime_08_08_2014/KeilCompiledLib/FileSytem_SdCard/prime-framework/common/include/prime_compiler.h:65:1: warning: "PF_C_STATIC_INLINE" redefined
f:/New_Prime_08_08_2014/KeilCompiledLib/FileSytem_SdCard/prime-framework/common/include/prime_compiler.h:53:1: warning: this is the location of the previous definition
f:/New_Prime_08_08_2014/KeilCompiledLib/FileSytem_SdCard/prime-framework/nativehardware/at90can128/src/prime_can.c: In function 'pfCanOpen':
f:/New_Prime_08_08_2014/KeilCompiledLib/FileSytem_SdCard/prime-framework/nativehardware/at90can128/src/prime_can.c:122: warning: comparison between pointer and integer
f:/New_Prime_08_08_2014/KeilCompiledLib/FileSytem_SdCard/prime-framework/nativehardware/at90can128/src/prime_can.c: In function 'pfCanReadMessage':
f:/New_Prime_08_08_2014/KeilCompiledLib/FileSytem_SdCard/prime-framework/nativehardware/at90can128/src/prime_can.c:392: warning: left shift count >= width of type
f:/New_Prime_08_08_2014/KeilCompiledLib/FileSytem_SdCard/prime-framework/nativehardware/at90can128/src/prime_can.c: At top level:
f:/New_Prime_08_08_2014/KeilCompiledLib/FileSytem_SdCard/prime-framework/nativehardware/at90can128/src/prime_can.c:22: warning: 'canIntFlag' defined but not used
f:/New_Prime_08_08_2014/KeilCompiledLib/FileSytem_SdCard/prime-framework/nativehardware/at90can128/src/prime_can.c:26: warning: 'canTxInterrupt' defined but not used
f:/New_Prime_08_08_2014/KeilCompiledLib/FileSytem_SdCard/prime-framework/nativehardware/at90can128/src/prime_can.c:27: warning: 'canRxInterrupt' defined but not used
In file included from f:/New_Prime_08_08_2014/KeilCompiledLib/FileSytem_SdCard/prime-framework/include/prime_framework.h:17,
                 from f:/New_Prime_08_08_2014/KeilCompiledLib/FileSytem_SdCard/prime-framework/nativehardware/at90can128/src/prime_eeprom.c:1:
f:/New_Prime_08_08_2014/KeilCompiledLib/FileSytem_SdCard/prime-framework/common/include/prime_compiler.h:65:1: warning: "PF_C_STATIC_INLINE" redefined
f:/New_Prime_08_08_2014/KeilCompiledLib/FileSytem_SdCard/prime-framework/common/include/prime_compiler.h:53:1: warning: this is the location of the previous definition
f:/New_Prime_08_08_2014/KeilCompiledLib/FileSytem_SdCard/prime-framework/nativehardware/at90can128/src/prime_eeprom.c: In function 'pfEEpromWriteByte':
f:/New_Prime_08_08_2014/KeilCompiledLib/FileSytem_SdCard/prime-framework/nativehardware/at90can128/src/prime_eeprom.c:58: warning: unused variable 'eecrPtr'
f:/New_Prime_08_08_2014/KeilCompiledLib/FileSytem_SdCard/prime-framework/nativehardware/at90can128/src/prime_eeprom.c:57: warning: unused variable 'peByte'
f:/New_Prime_08_08_2014/KeilCompiledLib/FileSytem_SdCard/prime-framework/nativehardware/at90can128/src/prime_eeprom.c:57: warning: unused variable 'mpeByte'
f:/New_Prime_08_08_2014/KeilCompiledLib/FileSytem_SdCard/prime-framework/nativehardware/at90can128/src/prime_eeprom.c:57: warning: unused variable 'readByte'
In file included from f:/New_Prime_08_08_2014/KeilCompiledLib/FileSytem_SdCard/prime-framework/include/prime_framework.h:17,
                 from f:/New_Prime_08_08_2014/KeilCompiledLib/FileSytem_SdCard/prime-framework/nativehardware/at90can128/src/prime_eint0.c:1:
f:/New_Prime_08_08_2014/KeilCompiledLib/FileSytem_SdCard/prime-framework/common/include/prime_compiler.h:65:1: warning: "PF_C_STATIC_INLINE" redefined
f:/New_Prime_08_08_2014/KeilCompiledLib/FileSytem_SdCard/prime-framework/common/include/prime_compiler.h:53:1: warning: this is the location of the previous definition
In file included from f:/New_Prime_08_08_2014/KeilCompiledLib/FileSytem_SdCard/prime-framework/include/prime_framework.h:17,
                 from f:/New_Prime_08_08_2014/KeilCompiledLib/FileSytem_SdCard/prime-framework/nativehardware/at90can128/src/prime_gpio.c:1:
f:/New_Prime_08_08_2014/KeilCompiledLib/FileSytem_SdCard/prime-framework/common/include/prime_compiler.h:65:1: warning: "PF_C_STATIC_INLINE" redefined
f:/New_Prime_08_08_2014/KeilCompiledLib/FileSytem_SdCard/prime-framework/common/include/prime_compiler.h:53:1: warning: this is the location of the previous definition
In file included from f:/New_Prime_08_08_2014/KeilCompiledLib/FileSytem_SdCard/prime-framework/include/prime_framework.h:17,
                 from f:/New_Prime_08_08_2014/KeilCompiledLib/FileSytem_SdCard/prime-framework/nativehardware/at90can128/src/prime_i2c.c:1:
f:/New_Prime_08_08_2014/KeilCompiledLib/FileSytem_SdCard/prime-framework/common/include/prime_compiler.h:65:1: warning: "PF_C_STATIC_INLINE" redefined
f:/New_Prime_08_08_2014/KeilCompiledLib/FileSytem_SdCard/prime-framework/common/include/prime_compiler.h:53:1: warning: this is the location of the previous definition
f:/New_Prime_08_08_2014/KeilCompiledLib/FileSytem_SdCard/prime-framework/nativehardware/at90can128/src/prime_i2c.c:8:2: warning: #warning I2C FIFO is enabled for interrupt based communication
f:/New_Prime_08_08_2014/KeilCompiledLib/FileSytem_SdCard/prime-framework/nativehardware/at90can128/src/prime_i2c.c: In function 'pfI2cOpen':
f:/New_Prime_08_08_2014/KeilCompiledLib/FileSytem_SdCard/prime-framework/nativehardware/at90can128/src/prime_i2c.c:144: warning: passing argument 1 of 'pfFifoInit' discards qualifiers from pointer target type
f:/New_Prime_08_08_2014/KeilCompiledLib/FileSytem_SdCard/prime-framework/nativehardware/at90can128/src/prime_i2c.c:144: warning: passing argument 2 of 'pfFifoInit' discards qualifiers from pointer target type
f:/New_Prime_08_08_2014/KeilCompiledLib/FileSytem_SdCard/prime-framework/nativehardware/at90can128/src/prime_i2c.c:145: warning: passing argument 1 of 'pfFifoInit' discards qualifiers from pointer target type
f:/New_Prime_08_08_2014/KeilCompiledLib/FileSytem_SdCard/prime-framework/nativehardware/at90can128/src/prime_i2c.c:145: warning: passing argument 2 of 'pfFifoInit' discards qualifiers from pointer target type
f:/New_Prime_08_08_2014/KeilCompiledLib/FileSytem_SdCard/prime-framework/nativehardware/at90can128/src/prime_i2c.c: In function 'pfI2cWrite':
f:/New_Prime_08_08_2014/KeilCompiledLib/FileSytem_SdCard/prime-framework/nativehardware/at90can128/src/prime_i2c.c:392: warning: passing argument 1 of 'pfFifoPush' discards qualifiers from pointer target type
f:/New_Prime_08_08_2014/KeilCompiledLib/FileSytem_SdCard/prime-framework/nativehardware/at90can128/src/prime_i2c.c: In function 'pfI2cRead':
f:/New_Prime_08_08_2014/KeilCompiledLib/FileSytem_SdCard/prime-framework/nativehardware/at90can128/src/prime_i2c.c:452: warning: passing argument 1 of 'pfFifoIsEmpty' discards qualifiers from pointer target type
f:/New_Prime_08_08_2014/KeilCompiledLib/FileSytem_SdCard/prime-framework/nativehardware/at90can128/src/prime_i2c.c:454: warning: passing argument 1 of 'pfFifoPop' discards qualifiers from pointer target type
f:/New_Prime_08_08_2014/KeilCompiledLib/FileSytem_SdCard/prime-framework/nativehardware/at90can128/src/prime_i2c.c:476: warning: passing argument 1 of 'pfFifoPop' discards qualifiers from pointer target type
f:/New_Prime_08_08_2014/KeilCompiledLib/FileSytem_SdCard/prime-framework/nativehardware/at90can128/src/prime_i2c.c:430: warning: unused variable 'loop'
f:/New_Prime_08_08_2014/KeilCompiledLib/FileSytem_SdCard/prime-framework/nativehardware/at90can128/src/prime_i2c.c: In function '__vector_35':
f:/New_Prime_08_08_2014/KeilCompiledLib/FileSytem_SdCard/prime-framework/nativehardware/at90can128/src/prime_i2c.c:536: warning: passing argument 1 of 'pfFifoIsEmpty' discards qualifiers from pointer target type
f:/New_Prime_08_08_2014/KeilCompiledLib/FileSytem_SdCard/prime-framework/nativehardware/at90can128/src/prime_i2c.c:538: warning: passing argument 1 of 'pfFifoPop' discards qualifiers from pointer target type
f:/New_Prime_08_08_2014/KeilCompiledLib/FileSytem_SdCard/prime-framework/nativehardware/at90can128/src/prime_i2c.c:573: warning: passing argument 1 of 'pfFifoPush' discards qualifiers from pointer target type
f:/New_Prime_08_08_2014/KeilCompiledLib/FileSytem_SdCard/prime-framework/nativehardware/at90can128/src/prime_i2c.c:582: warning: passing argument 1 of 'pfFifoPush' discards qualifiers from pointer target type
f:/New_Prime_08_08_2014/KeilCompiledLib/FileSytem_SdCard/prime-framework/nativehardware/at90can128/src/prime_i2c.c:604: warning: passing argument 1 of 'pfFifoPush' discards qualifiers from pointer target type
f:/New_Prime_08_08_2014/KeilCompiledLib/FileSytem_SdCard/prime-framework/nativehardware/at90can128/src/prime_i2c.c:613: warning: passing argument 1 of 'pfFifoIsEmpty' discards qualifiers from pointer target type
f:/New_Prime_08_08_2014/KeilCompiledLib/FileSytem_SdCard/prime-framework/nativehardware/at90can128/src/prime_i2c.c:615: warning: passing argument 1 of 'pfFifoPop' discards qualifiers from pointer target type
In file included from f:/New_Prime_08_08_2014/KeilCompiledLib/FileSytem_SdCard/prime-framework/include/prime_framework.h:17,
                 from f:/New_Prime_08_08_2014/KeilCompiledLib/FileSytem_SdCard/prime-framework/nativehardware/at90can128/src/prime_pwm0.c:1:
f:/New_Prime_08_08_2014/KeilCompiledLib/FileSytem_SdCard/prime-framework/common/include/prime_compiler.h:65:1: warning: "PF_C_STATIC_INLINE" redefined
f:/New_Prime_08_08_2014/KeilCompiledLib/FileSytem_SdCard/prime-framework/common/include/prime_compiler.h:53:1: warning: this is the location of the previous definition
In file included from f:/New_Prime_08_08_2014/KeilCompiledLib/FileSytem_SdCard/prime-framework/include/prime_framework.h:17,
                 from f:/New_Prime_08_08_2014/KeilCompiledLib/FileSytem_SdCard/prime-framework/nativehardware/at90can128/src/prime_pwm2.c:1:
f:/New_Prime_08_08_2014/KeilCompiledLib/FileSytem_SdCard/prime-framework/common/include/prime_compiler.h:65:1: warning: "PF_C_STATIC_INLINE" redefined
f:/New_Prime_08_08_2014/KeilCompiledLib/FileSytem_SdCard/prime-framework/common/include/prime_compiler.h:53:1: warning: this is the location of the previous definition
In file included from f:/New_Prime_08_08_2014/KeilCompiledLib/FileSytem_SdCard/prime-framework/include/prime_framework.h:17,
                 from f:/New_Prime_08_08_2014/KeilCompiledLib/FileSytem_SdCard/prime-framework/nativehardware/at90can128/src/prime_spi.c:1:
f:/New_Prime_08_08_2014/KeilCompiledLib/FileSytem_SdCard/prime-framework/common/include/prime_compiler.h:65:1: warning: "PF_C_STATIC_INLINE" redefined
f:/New_Prime_08_08_2014/KeilCompiledLib/FileSytem_SdCard/prime-framework/common/include/prime_compiler.h:53:1: warning: this is the location of the previous definition
f:/New_Prime_08_08_2014/KeilCompiledLib/FileSytem_SdCard/prime-framework/nativehardware/at90can128/src/prime_spi.c: In function 'pfSpiExchangeByte':
f:/New_Prime_08_08_2014/KeilCompiledLib/FileSytem_SdCard/prime-framework/nativehardware/at90can128/src/prime_spi.c:249: warning: assignment makes pointer from integer without a cast
f:/New_Prime_08_08_2014/KeilCompiledLib/FileSytem_SdCard/prime-framework/nativehardware/at90can128/src/prime_spi.c: In function 'pfSpiRead':
f:/New_Prime_08_08_2014/KeilCompiledLib/FileSytem_SdCard/prime-framework/nativehardware/at90can128/src/prime_spi.c:385: warning: value computed is not used
f:/New_Prime_08_08_2014/KeilCompiledLib/FileSytem_SdCard/prime-framework/nativehardware/at90can128/src/prime_spi.c: In function '__vector_SPI':
f:/New_Prime_08_08_2014/KeilCompiledLib/FileSytem_SdCard/prime-framework/nativehardware/at90can128/src/prime_spi.c:440: warning: unused variable 'dummyRead'
In file included from f:/New_Prime_08_08_2014/KeilCompiledLib/FileSytem_SdCard/prime-framework/include/prime_framework.h:17,
                 from f:/New_Prime_08_08_2014/KeilCompiledLib/FileSytem_SdCard/prime-framework/nativehardware/at90can128/src/prime_timer0.c:1:
f:/New_Prime_08_08_2014/KeilCompiledLib/FileSytem_SdCard/prime-framework/common/include/prime_compiler.h:65:1: warning: "PF_C_STATIC_INLINE" redefined
f:/New_Prime_08_08_2014/KeilCompiledLib/FileSytem_SdCard/prime-framework/common/include/prime_compiler.h:53:1: warning: this is the location of the previous definition
f:/New_Prime_08_08_2014/KeilCompiledLib/FileSytem_SdCard/prime-framework/nativehardware/at90can128/src/prime_timer0.c: In function 'pfTimer0UpdateMatchRegister':
f:/New_Prime_08_08_2014/KeilCompiledLib/FileSytem_SdCard/prime-framework/nativehardware/at90can128/src/prime_timer0.c:144: warning: control reaches end of non-void function
In file included from f:/New_Prime_08_08_2014/KeilCompiledLib/FileSytem_SdCard/prime-framework/include/prime_framework.h:17,
                 from f:/New_Prime_08_08_2014/KeilCompiledLib/FileSytem_SdCard/prime-framework/nativehardware/at90can128/src/prime_timer1.c:1:
f:/New_Prime_08_08_2014/KeilCompiledLib/FileSytem_SdCard/prime-framework/common/include/prime_compiler.h:65:1: warning: "PF_C_STATIC_INLINE" redefined
f:/New_Prime_08_08_2014/KeilCompiledLib/FileSytem_SdCard/prime-framework/common/include/prime_compiler.h:53:1: warning: this is the location of the previous definition
In file included from f:/New_Prime_08_08_2014/KeilCompiledLib/FileSytem_SdCard/prime-framework/include/prime_framework.h:17,
                 from f:/New_Prime_08_08_2014/KeilCompiledLib/FileSytem_SdCard/prime-framework/nativehardware/at90can128/src/prime_timer2.c:1:
f:/New_Prime_08_08_2014/KeilCompiledLib/FileSytem_SdCard/prime-framework/common/include/prime_compiler.h:65:1: warning: "PF_C_STATIC_INLINE" redefined
f:/New_Prime_08_08_2014/KeilCompiledLib/FileSytem_SdCard/prime-framework/common/include/prime_compiler.h:53:1: warning: this is the location of the previous definition
f:/New_Prime_08_08_2014/KeilCompiledLib/FileSytem_SdCard/prime-framework/nativehardware/at90can128/src/prime_timer2.c: In function 'pfTimer2UpdateMatchRegister':
f:/New_Prime_08_08_2014/KeilCompiledLib/FileSytem_SdCard/prime-framework/nativehardware/at90can128/src/prime_timer2.c:144: warning: control reaches end of non-void function
f:/New_Prime_08_08_2014/KeilCompiledLib/FileSytem_SdCard/prime-framework/nativehardware/at90can128/src/prime_timer2.c: At top level:
f:/New_Prime_08_08_2014/KeilCompiledLib/FileSytem_SdCard/prime-framework/nativehardware/at90can128/src/prime_timer2.c:7: warning: 'timer2cmpMatchBCallback' defined but not used
In file included from f:/New_Prime_08_08_2014/KeilCompiledLib/FileSytem_SdCard/prime-framework/include/prime_framework.h:17,
                 from f:/New_Prime_08_08_2014/KeilCompiledLib/FileSytem_SdCard/prime-framework/nativehardware/at90can128/src/prime_timer3.c:1:
f:/New_Prime_08_08_2014/KeilCompiledLib/FileSytem_SdCard/prime-framework/common/include/prime_compiler.h:65:1: warning: "PF_C_STATIC_INLINE" redefined
f:/New_Prime_08_08_2014/KeilCompiledLib/FileSytem_SdCard/prime-framework/common/include/prime_compiler.h:53:1: warning: this is the location of the previous definition
In file included from f:/New_Prime_08_08_2014/KeilCompiledLib/FileSytem_SdCard/prime-framework/include/prime_framework.h:17,
                 from f:/New_Prime_08_08_2014/KeilCompiledLib/FileSytem_SdCard/prime-framework/nativehardware/at90can128/src/prime_uart0.c:1:
f:/New_Prime_08_08_2014/KeilCompiledLib/FileSytem_SdCard/prime-framework/common/include/prime_compiler.h:65:1: warning: "PF_C_STATIC_INLINE" redefined
f:/New_Prime_08_08_2014/KeilCompiledLib/FileSytem_SdCard/prime-framework/common/include/prime_compiler.h:53:1: warning: this is the location of the previous definition
f:/New_Prime_08_08_2014/KeilCompiledLib/FileSytem_SdCard/prime-framework/nativehardware/at90can128/src/prime_uart0.c:7:3: warning: #warning UART0 FIFO is enabled for interrupt based communication
f:/New_Prime_08_08_2014/KeilCompiledLib/FileSytem_SdCard/prime-framework/nativehardware/at90can128/src/prime_uart0.c: In function 'pfUart0Read':
f:/New_Prime_08_08_2014/KeilCompiledLib/FileSytem_SdCard/prime-framework/nativehardware/at90can128/src/prime_uart0.c:246: warning: value computed is not used
In file included from f:/New_Prime_08_08_2014/KeilCompiledLib/FileSytem_SdCard/prime-framework/include/prime_framework.h:17,
                 from f:/New_Prime_08_08_2014/KeilCompiledLib/FileSytem_SdCard/prime-framework/nativehardware/at90can128/src/prime_uart1.c:1:
f:/New_Prime_08_08_2014/KeilCompiledLib/FileSytem_SdCard/prime-framework/common/include/prime_compiler.h:65:1: warning: "PF_C_STATIC_INLINE" redefined
f:/New_Prime_08_08_2014/KeilCompiledLib/FileSytem_SdCard/prime-framework/common/include/prime_compiler.h:53:1: warning: this is the location of the previous definition
f:/New_Prime_08_08_2014/KeilCompiledLib/FileSytem_SdCard/prime-framework/nativehardware/at90can128/src/prime_uart1.c:7:3: warning: #warning UART1 FIFO is enabled for interrupt based communication
f:/New_Prime_08_08_2014/KeilCompiledLib/FileSytem_SdCard/prime-framework/nativehardware/at90can128/src/prime_uart1.c: In function 'pfUart1Read':
f:/New_Prime_08_08_2014/KeilCompiledLib/FileSytem_SdCard/prime-framework/nativehardware/at90can128/src/prime_uart1.c:246: warning: value computed is not used
mkdir: cannot create directory `/f/New_Prime_08_08_2014/KeilCompiledLib/FileSytem_SdCard/prime-framework/device/obj': File exists
make: [pf_devicedrv_mkdir] Error 1 (ignored)
In file included from f:/New_Prime_08_08_2014/KeilCompiledLib/FileSytem_SdCard/prime-framework/include/prime_framework.h:17,
                 from f:/New_Prime_08_08_2014/KeilCompiledLib/FileSytem_SdCard/prime-framework/device/src/prime_qeiLS7366.c:1:
f:/New_Prime_08_08_2014/KeilCompiledLib/FileSytem_SdCard/prime-framework/common/include/prime_compiler.h:65:1: warning: "PF_C_STATIC_INLINE" redefined
f:/New_Prime_08_08_2014/KeilCompiledLib/FileSytem_SdCard/prime-framework/common/include/prime_compiler.h:53:1: warning: this is the location of the previous definition
In file included from f:/New_Prime_08_08_2014/KeilCompiledLib/FileSytem_SdCard/prime-framework/include/prime_framework.h:17,
                 from f:/New_Prime_08_08_2014/KeilCompiledLib/FileSytem_SdCard/prime-framework/device/src/prime_cheetah.c:1:
f:/New_Prime_08_08_2014/KeilCompiledLib/FileSytem_SdCard/prime-framework/common/include/prime_compiler.h:65:1: warning: "PF_C_STATIC_INLINE" redefined
f:/New_Prime_08_08_2014/KeilCompiledLib/FileSytem_SdCard/prime-framework/common/include/prime_compiler.h:53:1: warning: this is the location of the previous definition
In file included from f:/New_Prime_08_08_2014/KeilCompiledLib/FileSytem_SdCard/prime-framework/include/prime_framework.h:17,
                 from f:/New_Prime_08_08_2014/KeilCompiledLib/FileSytem_SdCard/prime-framework/device/src/prime_gp2y0a710.c:1:
f:/New_Prime_08_08_2014/KeilCompiledLib/FileSytem_SdCard/prime-framework/common/include/prime_compiler.h:65:1: warning: "PF_C_STATIC_INLINE" redefined
f:/New_Prime_08_08_2014/KeilCompiledLib/FileSytem_SdCard/prime-framework/common/include/prime_compiler.h:53:1: warning: this is the location of the previous definition
In file included from f:/New_Prime_08_08_2014/KeilCompiledLib/FileSytem_SdCard/prime-framework/include/prime_framework.h:17,
                 from f:/New_Prime_08_08_2014/KeilCompiledLib/FileSytem_SdCard/prime-framework/device/src/prime_gp2y0a21.c:1:
f:/New_Prime_08_08_2014/KeilCompiledLib/FileSytem_SdCard/prime-framework/common/include/prime_compiler.h:65:1: warning: "PF_C_STATIC_INLINE" redefined
f:/New_Prime_08_08_2014/KeilCompiledLib/FileSytem_SdCard/prime-framework/common/include/prime_compiler.h:53:1: warning: this is the location of the previous definition
In file included from f:/New_Prime_08_08_2014/KeilCompiledLib/FileSytem_SdCard/prime-framework/include/prime_framework.h:17,
                 from f:/New_Prime_08_08_2014/KeilCompiledLib/FileSytem_SdCard/prime-framework/device/src/prime_gp2y0a02.c:1:
f:/New_Prime_08_08_2014/KeilCompiledLib/FileSytem_SdCard/prime-framework/common/include/prime_compiler.h:65:1: warning: "PF_C_STATIC_INLINE" redefined
f:/New_Prime_08_08_2014/KeilCompiledLib/FileSytem_SdCard/prime-framework/common/include/prime_compiler.h:53:1: warning: this is the location of the previous definition
In file included from f:/New_Prime_08_08_2014/KeilCompiledLib/FileSytem_SdCard/prime-framework/include/prime_framework.h:17,
                 from f:/New_Prime_08_08_2014/KeilCompiledLib/FileSytem_SdCard/prime-framework/device/src/prime_ultrasonic.c:1:
f:/New_Prime_08_08_2014/KeilCompiledLib/FileSytem_SdCard/prime-framework/common/include/prime_compiler.h:65:1: warning: "PF_C_STATIC_INLINE" redefined
f:/New_Prime_08_08_2014/KeilCompiledLib/FileSytem_SdCard/prime-framework/common/include/prime_compiler.h:53:1: warning: this is the location of the previous definition
In file included from f:/New_Prime_08_08_2014/KeilCompiledLib/FileSytem_SdCard/prime-framework/include/prime_framework.h:17,
                 from f:/New_Prime_08_08_2014/KeilCompiledLib/FileSytem_SdCard/prime-framework/device/src/prime_a3977.c:1:
f:/New_Prime_08_08_2014/KeilCompiledLib/FileSytem_SdCard/prime-framework/common/include/prime_compiler.h:65:1: warning: "PF_C_STATIC_INLINE" redefined
f:/New_Prime_08_08_2014/KeilCompiledLib/FileSytem_SdCard/prime-framework/common/include/prime_compiler.h:53:1: warning: this is the location of the previous definition
f:/New_Prime_08_08_2014/KeilCompiledLib/FileSytem_SdCard/prime-framework/device/src/prime_a3977.c: In function 'pfA3977run':
f:/New_Prime_08_08_2014/KeilCompiledLib/FileSytem_SdCard/prime-framework/device/src/prime_a3977.c:371: warning: unused variable 'j'
f:/New_Prime_08_08_2014/KeilCompiledLib/FileSytem_SdCard/prime-framework/device/src/prime_a3977.c: In function 'stepperControlFunction':
f:/New_Prime_08_08_2014/KeilCompiledLib/FileSytem_SdCard/prime-framework/device/src/prime_a3977.c:909: warning: passing argument 1 of 'a3977Config[(int)k].pfTimerGetIntStatus' discards qualifiers from pointer target type
In file included from f:/New_Prime_08_08_2014/KeilCompiledLib/FileSytem_SdCard/prime-framework/include/prime_framework.h:17,
                 from f:/New_Prime_08_08_2014/KeilCompiledLib/FileSytem_SdCard/prime-framework/device/src/prime_l6470.c:1:
f:/New_Prime_08_08_2014/KeilCompiledLib/FileSytem_SdCard/prime-framework/common/include/prime_compiler.h:65:1: warning: "PF_C_STATIC_INLINE" redefined
f:/New_Prime_08_08_2014/KeilCompiledLib/FileSytem_SdCard/prime-framework/common/include/prime_compiler.h:53:1: warning: this is the location of the previous definition
f:/New_Prime_08_08_2014/KeilCompiledLib/FileSytem_SdCard/prime-framework/device/src/prime_l6470.c: In function 'pfL6470open':
f:/New_Prime_08_08_2014/KeilCompiledLib/FileSytem_SdCard/prime-framework/device/src/prime_l6470.c:88: warning: passing argument 3 of 'l6470ConfigStruct[(int)j].pfSpiExchangeByte' discards qualifiers from pointer target type
f:/New_Prime_08_08_2014/KeilCompiledLib/FileSytem_SdCard/prime-framework/device/src/prime_l6470.c:90: warning: passing argument 3 of 'l6470ConfigStruct[(int)j].pfSpiExchangeByte' discards qualifiers from pointer target type
f:/New_Prime_08_08_2014/KeilCompiledLib/FileSytem_SdCard/prime-framework/device/src/prime_l6470.c:104: warning: passing argument 3 of 'l6470ConfigStruct[(int)j].pfSpiExchangeByte' discards qualifiers from pointer target type
f:/New_Prime_08_08_2014/KeilCompiledLib/FileSytem_SdCard/prime-framework/device/src/prime_l6470.c:106: warning: passing argument 3 of 'l6470ConfigStruct[(int)j].pfSpiExchangeByte' discards qualifiers from pointer target type
f:/New_Prime_08_08_2014/KeilCompiledLib/FileSytem_SdCard/prime-framework/device/src/prime_l6470.c:120: warning: passing argument 3 of 'l6470ConfigStruct[(int)j].pfSpiExchangeByte' discards qualifiers from pointer target type
f:/New_Prime_08_08_2014/KeilCompiledLib/FileSytem_SdCard/prime-framework/device/src/prime_l6470.c:122: warning: passing argument 3 of 'l6470ConfigStruct[(int)j].pfSpiExchangeByte' discards qualifiers from pointer target type
f:/New_Prime_08_08_2014/KeilCompiledLib/FileSytem_SdCard/prime-framework/device/src/prime_l6470.c:136: warning: passing argument 3 of 'l6470ConfigStruct[(int)j].pfSpiExchangeByte' discards qualifiers from pointer target type
f:/New_Prime_08_08_2014/KeilCompiledLib/FileSytem_SdCard/prime-framework/device/src/prime_l6470.c:138: warning: passing argument 3 of 'l6470ConfigStruct[(int)j].pfSpiExchangeByte' discards qualifiers from pointer target type
f:/New_Prime_08_08_2014/KeilCompiledLib/FileSytem_SdCard/prime-framework/device/src/prime_l6470.c:156: warning: passing argument 3 of 'l6470ConfigStruct[(int)j].pfSpiExchangeByte' discards qualifiers from pointer target type
f:/New_Prime_08_08_2014/KeilCompiledLib/FileSytem_SdCard/prime-framework/device/src/prime_l6470.c:158: warning: passing argument 3 of 'l6470ConfigStruct[(int)j].pfSpiExchangeByte' discards qualifiers from pointer target type
f:/New_Prime_08_08_2014/KeilCompiledLib/FileSytem_SdCard/prime-framework/device/src/prime_l6470.c:176: warning: passing argument 3 of 'l6470ConfigStruct[(int)j].pfSpiExchangeByte' discards qualifiers from pointer target type
f:/New_Prime_08_08_2014/KeilCompiledLib/FileSytem_SdCard/prime-framework/device/src/prime_l6470.c:178: warning: passing argument 3 of 'l6470ConfigStruct[(int)j].pfSpiExchangeByte' discards qualifiers from pointer target type
f:/New_Prime_08_08_2014/KeilCompiledLib/FileSytem_SdCard/prime-framework/device/src/prime_l6470.c:196: warning: passing argument 3 of 'l6470ConfigStruct[(int)j].pfSpiExchangeByte' discards qualifiers from pointer target type
f:/New_Prime_08_08_2014/KeilCompiledLib/FileSytem_SdCard/prime-framework/device/src/prime_l6470.c:198: warning: passing argument 3 of 'l6470ConfigStruct[(int)j].pfSpiExchangeByte' discards qualifiers from pointer target type
f:/New_Prime_08_08_2014/KeilCompiledLib/FileSytem_SdCard/prime-framework/device/src/prime_l6470.c:216: warning: passing argument 3 of 'l6470ConfigStruct[(int)j].pfSpiExchangeByte' discards qualifiers from pointer target type
f:/New_Prime_08_08_2014/KeilCompiledLib/FileSytem_SdCard/prime-framework/device/src/prime_l6470.c:218: warning: passing argument 3 of 'l6470ConfigStruct[(int)j].pfSpiExchangeByte' discards qualifiers from pointer target type
f:/New_Prime_08_08_2014/KeilCompiledLib/FileSytem_SdCard/prime-framework/device/src/prime_l6470.c:232: warning: passing argument 3 of 'l6470ConfigStruct[(int)j].pfSpiExchangeByte' discards qualifiers from pointer target type
f:/New_Prime_08_08_2014/KeilCompiledLib/FileSytem_SdCard/prime-framework/device/src/prime_l6470.c:234: warning: passing argument 3 of 'l6470ConfigStruct[(int)j].pfSpiExchangeByte' discards qualifiers from pointer target type
f:/New_Prime_08_08_2014/KeilCompiledLib/FileSytem_SdCard/prime-framework/device/src/prime_l6470.c:255: warning: passing argument 3 of 'l6470ConfigStruct[(int)j].pfSpiExchangeByte' discards qualifiers from pointer target type
f:/New_Prime_08_08_2014/KeilCompiledLib/FileSytem_SdCard/prime-framework/device/src/prime_l6470.c:257: warning: passing argument 3 of 'l6470ConfigStruct[(int)j].pfSpiExchangeByte' discards qualifiers from pointer target type
f:/New_Prime_08_08_2014/KeilCompiledLib/FileSytem_SdCard/prime-framework/device/src/prime_l6470.c:271: warning: passing argument 3 of 'l6470ConfigStruct[(int)j].pfSpiExchangeByte' discards qualifiers from pointer target type
f:/New_Prime_08_08_2014/KeilCompiledLib/FileSytem_SdCard/prime-framework/device/src/prime_l6470.c:273: warning: passing argument 3 of 'l6470ConfigStruct[(int)j].pfSpiExchangeByte' discards qualifiers from pointer target type
f:/New_Prime_08_08_2014/KeilCompiledLib/FileSytem_SdCard/prime-framework/device/src/prime_l6470.c:287: warning: passing argument 3 of 'l6470ConfigStruct[(int)j].pfSpiExchangeByte' discards qualifiers from pointer target type
f:/New_Prime_08_08_2014/KeilCompiledLib/FileSytem_SdCard/prime-framework/device/src/prime_l6470.c:289: warning: passing argument 3 of 'l6470ConfigStruct[(int)j].pfSpiExchangeByte' discards qualifiers from pointer target type
f:/New_Prime_08_08_2014/KeilCompiledLib/FileSytem_SdCard/prime-framework/device/src/prime_l6470.c:311: warning: passing argument 3 of 'l6470ConfigStruct[(int)j].pfSpiExchangeByte' discards qualifiers from pointer target type
f:/New_Prime_08_08_2014/KeilCompiledLib/FileSytem_SdCard/prime-framework/device/src/prime_l6470.c:313: warning: passing argument 3 of 'l6470ConfigStruct[(int)j].pfSpiExchangeByte' discards qualifiers from pointer target type
f:/New_Prime_08_08_2014/KeilCompiledLib/FileSytem_SdCard/prime-framework/device/src/prime_l6470.c:327: warning: passing argument 3 of 'l6470ConfigStruct[(int)j].pfSpiExchangeByte' discards qualifiers from pointer target type
f:/New_Prime_08_08_2014/KeilCompiledLib/FileSytem_SdCard/prime-framework/device/src/prime_l6470.c:329: warning: passing argument 3 of 'l6470ConfigStruct[(int)j].pfSpiExchangeByte' discards qualifiers from pointer target type
f:/New_Prime_08_08_2014/KeilCompiledLib/FileSytem_SdCard/prime-framework/device/src/prime_l6470.c:44: warning: unused variable 'readBytes'
f:/New_Prime_08_08_2014/KeilCompiledLib/FileSytem_SdCard/prime-framework/device/src/prime_l6470.c:43: warning: unused variable 'buf'
f:/New_Prime_08_08_2014/KeilCompiledLib/FileSytem_SdCard/prime-framework/device/src/prime_l6470.c:41: warning: unused variable 'data'
f:/New_Prime_08_08_2014/KeilCompiledLib/FileSytem_SdCard/prime-framework/device/src/prime_l6470.c: In function 'pfL6470run':
f:/New_Prime_08_08_2014/KeilCompiledLib/FileSytem_SdCard/prime-framework/device/src/prime_l6470.c:423: warning: passing argument 3 of 'l6470ConfigStruct[(int)j].pfSpiExchangeByte' discards qualifiers from pointer target type
f:/New_Prime_08_08_2014/KeilCompiledLib/FileSytem_SdCard/prime-framework/device/src/prime_l6470.c:425: warning: passing argument 3 of 'l6470ConfigStruct[(int)j].pfSpiExchangeByte' discards qualifiers from pointer target type
f:/New_Prime_08_08_2014/KeilCompiledLib/FileSytem_SdCard/prime-framework/device/src/prime_l6470.c:439: warning: passing argument 3 of 'l6470ConfigStruct[(int)j].pfSpiExchangeByte' discards qualifiers from pointer target type
f:/New_Prime_08_08_2014/KeilCompiledLib/FileSytem_SdCard/prime-framework/device/src/prime_l6470.c:441: warning: passing argument 3 of 'l6470ConfigStruct[(int)j].pfSpiExchangeByte' discards qualifiers from pointer target type
f:/New_Prime_08_08_2014/KeilCompiledLib/FileSytem_SdCard/prime-framework/device/src/prime_l6470.c:459: warning: passing argument 3 of 'l6470ConfigStruct[(int)j].pfSpiExchangeByte' discards qualifiers from pointer target type
f:/New_Prime_08_08_2014/KeilCompiledLib/FileSytem_SdCard/prime-framework/device/src/prime_l6470.c:461: warning: passing argument 3 of 'l6470ConfigStruct[(int)j].pfSpiExchangeByte' discards qualifiers from pointer target type
f:/New_Prime_08_08_2014/KeilCompiledLib/FileSytem_SdCard/prime-framework/device/src/prime_l6470.c:479: warning: passing argument 3 of 'l6470ConfigStruct[(int)j].pfSpiExchangeByte' discards qualifiers from pointer target type
f:/New_Prime_08_08_2014/KeilCompiledLib/FileSytem_SdCard/prime-framework/device/src/prime_l6470.c:481: warning: passing argument 3 of 'l6470ConfigStruct[(int)j].pfSpiExchangeByte' discards qualifiers from pointer target type
f:/New_Prime_08_08_2014/KeilCompiledLib/FileSytem_SdCard/prime-framework/device/src/prime_l6470.c:491: warning: passing argument 3 of 'l6470ConfigStruct[(int)j].pfSpiExchangeByte' discards qualifiers from pointer target type
f:/New_Prime_08_08_2014/KeilCompiledLib/FileSytem_SdCard/prime-framework/device/src/prime_l6470.c:493: warning: passing argument 3 of 'l6470ConfigStruct[(int)j].pfSpiExchangeByte' discards qualifiers from pointer target type
f:/New_Prime_08_08_2014/KeilCompiledLib/FileSytem_SdCard/prime-framework/device/src/prime_l6470.c: In function 'pfL6470move':
f:/New_Prime_08_08_2014/KeilCompiledLib/FileSytem_SdCard/prime-framework/device/src/prime_l6470.c:535: warning: passing argument 3 of 'l6470ConfigStruct[(int)j].pfSpiExchangeByte' discards qualifiers from pointer target type
f:/New_Prime_08_08_2014/KeilCompiledLib/FileSytem_SdCard/prime-framework/device/src/prime_l6470.c:537: warning: passing argument 3 of 'l6470ConfigStruct[(int)j].pfSpiExchangeByte' discards qualifiers from pointer target type
f:/New_Prime_08_08_2014/KeilCompiledLib/FileSytem_SdCard/prime-framework/device/src/prime_l6470.c:554: warning: passing argument 3 of 'l6470ConfigStruct[(int)j].pfSpiExchangeByte' discards qualifiers from pointer target type
f:/New_Prime_08_08_2014/KeilCompiledLib/FileSytem_SdCard/prime-framework/device/src/prime_l6470.c:556: warning: passing argument 3 of 'l6470ConfigStruct[(int)j].pfSpiExchangeByte' discards qualifiers from pointer target type
f:/New_Prime_08_08_2014/KeilCompiledLib/FileSytem_SdCard/prime-framework/device/src/prime_l6470.c:566: warning: passing argument 3 of 'l6470ConfigStruct[(int)j].pfSpiExchangeByte' discards qualifiers from pointer target type
f:/New_Prime_08_08_2014/KeilCompiledLib/FileSytem_SdCard/prime-framework/device/src/prime_l6470.c:568: warning: passing argument 3 of 'l6470ConfigStruct[(int)j].pfSpiExchangeByte' discards qualifiers from pointer target type
f:/New_Prime_08_08_2014/KeilCompiledLib/FileSytem_SdCard/prime-framework/device/src/prime_l6470.c:583: warning: passing argument 3 of 'l6470ConfigStruct[(int)j].pfSpiExchangeByte' discards qualifiers from pointer target type
f:/New_Prime_08_08_2014/KeilCompiledLib/FileSytem_SdCard/prime-framework/device/src/prime_l6470.c:585: warning: passing argument 3 of 'l6470ConfigStruct[(int)j].pfSpiExchangeByte' discards qualifiers from pointer target type
f:/New_Prime_08_08_2014/KeilCompiledLib/FileSytem_SdCard/prime-framework/device/src/prime_l6470.c:508: warning: unused variable 'data'
f:/New_Prime_08_08_2014/KeilCompiledLib/FileSytem_SdCard/prime-framework/device/src/prime_l6470.c: In function 'pfL6470deviceReady':
f:/New_Prime_08_08_2014/KeilCompiledLib/FileSytem_SdCard/prime-framework/device/src/prime_l6470.c:627: warning: passing argument 3 of 'l6470ConfigStruct[(int)j].pfSpiExchangeByte' discards qualifiers from pointer target type
f:/New_Prime_08_08_2014/KeilCompiledLib/FileSytem_SdCard/prime-framework/device/src/prime_l6470.c:629: warning: passing argument 3 of 'l6470ConfigStruct[(int)j].pfSpiExchangeByte' discards qualifiers from pointer target type
f:/New_Prime_08_08_2014/KeilCompiledLib/FileSytem_SdCard/prime-framework/device/src/prime_l6470.c: In function 'pfL6470goUntil':
f:/New_Prime_08_08_2014/KeilCompiledLib/FileSytem_SdCard/prime-framework/device/src/prime_l6470.c:676: warning: passing argument 3 of 'l6470ConfigStruct[(int)j].pfSpiExchangeByte' discards qualifiers from pointer target type
f:/New_Prime_08_08_2014/KeilCompiledLib/FileSytem_SdCard/prime-framework/device/src/prime_l6470.c:678: warning: passing argument 3 of 'l6470ConfigStruct[(int)j].pfSpiExchangeByte' discards qualifiers from pointer target type
f:/New_Prime_08_08_2014/KeilCompiledLib/FileSytem_SdCard/prime-framework/device/src/prime_l6470.c:691: warning: passing argument 3 of 'l6470ConfigStruct[(int)j].pfSpiExchangeByte' discards qualifiers from pointer target type
f:/New_Prime_08_08_2014/KeilCompiledLib/FileSytem_SdCard/prime-framework/device/src/prime_l6470.c:693: warning: passing argument 3 of 'l6470ConfigStruct[(int)j].pfSpiExchangeByte' discards qualifiers from pointer target type
f:/New_Prime_08_08_2014/KeilCompiledLib/FileSytem_SdCard/prime-framework/device/src/prime_l6470.c:711: warning: passing argument 3 of 'l6470ConfigStruct[(int)j].pfSpiExchangeByte' discards qualifiers from pointer target type
f:/New_Prime_08_08_2014/KeilCompiledLib/FileSytem_SdCard/prime-framework/device/src/prime_l6470.c:713: warning: passing argument 3 of 'l6470ConfigStruct[(int)j].pfSpiExchangeByte' discards qualifiers from pointer target type
f:/New_Prime_08_08_2014/KeilCompiledLib/FileSytem_SdCard/prime-framework/device/src/prime_l6470.c: In function 'pfL6470releseSW':
f:/New_Prime_08_08_2014/KeilCompiledLib/FileSytem_SdCard/prime-framework/device/src/prime_l6470.c:755: warning: passing argument 3 of 'l6470ConfigStruct[(int)j].pfSpiExchangeByte' discards qualifiers from pointer target type
f:/New_Prime_08_08_2014/KeilCompiledLib/FileSytem_SdCard/prime-framework/device/src/prime_l6470.c:757: warning: passing argument 3 of 'l6470ConfigStruct[(int)j].pfSpiExchangeByte' discards qualifiers from pointer target type
f:/New_Prime_08_08_2014/KeilCompiledLib/FileSytem_SdCard/prime-framework/device/src/prime_l6470.c:770: warning: passing argument 3 of 'l6470ConfigStruct[(int)j].pfSpiExchangeByte' discards qualifiers from pointer target type
f:/New_Prime_08_08_2014/KeilCompiledLib/FileSytem_SdCard/prime-framework/device/src/prime_l6470.c:772: warning: passing argument 3 of 'l6470ConfigStruct[(int)j].pfSpiExchangeByte' discards qualifiers from pointer target type
f:/New_Prime_08_08_2014/KeilCompiledLib/FileSytem_SdCard/prime-framework/device/src/prime_l6470.c:781: warning: passing argument 3 of 'l6470ConfigStruct[(int)j].pfSpiExchangeByte' discards qualifiers from pointer target type
f:/New_Prime_08_08_2014/KeilCompiledLib/FileSytem_SdCard/prime-framework/device/src/prime_l6470.c:783: warning: passing argument 3 of 'l6470ConfigStruct[(int)j].pfSpiExchangeByte' discards qualifiers from pointer target type
f:/New_Prime_08_08_2014/KeilCompiledLib/FileSytem_SdCard/prime-framework/device/src/prime_l6470.c: In function 'pfL6470setMinimumSpeed':
f:/New_Prime_08_08_2014/KeilCompiledLib/FileSytem_SdCard/prime-framework/device/src/prime_l6470.c:828: warning: passing argument 3 of 'l6470ConfigStruct[(int)j].pfSpiExchangeByte' discards qualifiers from pointer target type
f:/New_Prime_08_08_2014/KeilCompiledLib/FileSytem_SdCard/prime-framework/device/src/prime_l6470.c:830: warning: passing argument 3 of 'l6470ConfigStruct[(int)j].pfSpiExchangeByte' discards qualifiers from pointer target type
f:/New_Prime_08_08_2014/KeilCompiledLib/FileSytem_SdCard/prime-framework/device/src/prime_l6470.c:847: warning: passing argument 3 of 'l6470ConfigStruct[(int)j].pfSpiExchangeByte' discards qualifiers from pointer target type
f:/New_Prime_08_08_2014/KeilCompiledLib/FileSytem_SdCard/prime-framework/device/src/prime_l6470.c:849: warning: passing argument 3 of 'l6470ConfigStruct[(int)j].pfSpiExchangeByte' discards qualifiers from pointer target type
f:/New_Prime_08_08_2014/KeilCompiledLib/FileSytem_SdCard/prime-framework/device/src/prime_l6470.c:859: warning: passing argument 3 of 'l6470ConfigStruct[(int)j].pfSpiExchangeByte' discards qualifiers from pointer target type
f:/New_Prime_08_08_2014/KeilCompiledLib/FileSytem_SdCard/prime-framework/device/src/prime_l6470.c:861: warning: passing argument 3 of 'l6470ConfigStruct[(int)j].pfSpiExchangeByte' discards qualifiers from pointer target type
f:/New_Prime_08_08_2014/KeilCompiledLib/FileSytem_SdCard/prime-framework/device/src/prime_l6470.c: In function 'pfL6470setFullStepSpeed':
f:/New_Prime_08_08_2014/KeilCompiledLib/FileSytem_SdCard/prime-framework/device/src/prime_l6470.c:910: warning: passing argument 3 of 'l6470ConfigStruct[(int)j].pfSpiExchangeByte' discards qualifiers from pointer target type
f:/New_Prime_08_08_2014/KeilCompiledLib/FileSytem_SdCard/prime-framework/device/src/prime_l6470.c:912: warning: passing argument 3 of 'l6470ConfigStruct[(int)j].pfSpiExchangeByte' discards qualifiers from pointer target type
f:/New_Prime_08_08_2014/KeilCompiledLib/FileSytem_SdCard/prime-framework/device/src/prime_l6470.c:922: warning: passing argument 3 of 'l6470ConfigStruct[(int)j].pfSpiExchangeByte' discards qualifiers from pointer target type
f:/New_Prime_08_08_2014/KeilCompiledLib/FileSytem_SdCard/prime-framework/device/src/prime_l6470.c:924: warning: passing argument 3 of 'l6470ConfigStruct[(int)j].pfSpiExchangeByte' discards qualifiers from pointer target type
f:/New_Prime_08_08_2014/KeilCompiledLib/FileSytem_SdCard/prime-framework/device/src/prime_l6470.c: In function 'pfL6470GoHomePosition':
f:/New_Prime_08_08_2014/KeilCompiledLib/FileSytem_SdCard/prime-framework/device/src/prime_l6470.c:966: warning: passing argument 3 of 'l6470ConfigStruct[(int)j].pfSpiExchangeByte' discards qualifiers from pointer target type
f:/New_Prime_08_08_2014/KeilCompiledLib/FileSytem_SdCard/prime-framework/device/src/prime_l6470.c:968: warning: passing argument 3 of 'l6470ConfigStruct[(int)j].pfSpiExchangeByte' discards qualifiers from pointer target type
f:/New_Prime_08_08_2014/KeilCompiledLib/FileSytem_SdCard/prime-framework/device/src/prime_l6470.c:981: warning: passing argument 3 of 'l6470ConfigStruct[(int)j].pfSpiExchangeByte' discards qualifiers from pointer target type
f:/New_Prime_08_08_2014/KeilCompiledLib/FileSytem_SdCard/prime-framework/device/src/prime_l6470.c:983: warning: passing argument 3 of 'l6470ConfigStruct[(int)j].pfSpiExchangeByte' discards qualifiers from pointer target type
f:/New_Prime_08_08_2014/KeilCompiledLib/FileSytem_SdCard/prime-framework/device/src/prime_l6470.c:992: warning: passing argument 3 of 'l6470ConfigStruct[(int)j].pfSpiExchangeByte' discards qualifiers from pointer target type
f:/New_Prime_08_08_2014/KeilCompiledLib/FileSytem_SdCard/prime-framework/device/src/prime_l6470.c:994: warning: passing argument 3 of 'l6470ConfigStruct[(int)j].pfSpiExchangeByte' discards qualifiers from pointer target type
f:/New_Prime_08_08_2014/KeilCompiledLib/FileSytem_SdCard/prime-framework/device/src/prime_l6470.c: In function 'pfL6470resetPosition':
f:/New_Prime_08_08_2014/KeilCompiledLib/FileSytem_SdCard/prime-framework/device/src/prime_l6470.c:1036: warning: passing argument 3 of 'l6470ConfigStruct[(int)j].pfSpiExchangeByte' discards qualifiers from pointer target type
f:/New_Prime_08_08_2014/KeilCompiledLib/FileSytem_SdCard/prime-framework/device/src/prime_l6470.c:1038: warning: passing argument 3 of 'l6470ConfigStruct[(int)j].pfSpiExchangeByte' discards qualifiers from pointer target type
f:/New_Prime_08_08_2014/KeilCompiledLib/FileSytem_SdCard/prime-framework/device/src/prime_l6470.c:1051: warning: passing argument 3 of 'l6470ConfigStruct[(int)j].pfSpiExchangeByte' discards qualifiers from pointer target type
f:/New_Prime_08_08_2014/KeilCompiledLib/FileSytem_SdCard/prime-framework/device/src/prime_l6470.c:1053: warning: passing argument 3 of 'l6470ConfigStruct[(int)j].pfSpiExchangeByte' discards qualifiers from pointer target type
f:/New_Prime_08_08_2014/KeilCompiledLib/FileSytem_SdCard/prime-framework/device/src/prime_l6470.c:1062: warning: passing argument 3 of 'l6470ConfigStruct[(int)j].pfSpiExchangeByte' discards qualifiers from pointer target type
f:/New_Prime_08_08_2014/KeilCompiledLib/FileSytem_SdCard/prime-framework/device/src/prime_l6470.c:1064: warning: passing argument 3 of 'l6470ConfigStruct[(int)j].pfSpiExchangeByte' discards qualifiers from pointer target type
f:/New_Prime_08_08_2014/KeilCompiledLib/FileSytem_SdCard/prime-framework/device/src/prime_l6470.c: In function 'pfL6470resetDevice':
f:/New_Prime_08_08_2014/KeilCompiledLib/FileSytem_SdCard/prime-framework/device/src/prime_l6470.c:1106: warning: passing argument 3 of 'l6470ConfigStruct[(int)j].pfSpiExchangeByte' discards qualifiers from pointer target type
f:/New_Prime_08_08_2014/KeilCompiledLib/FileSytem_SdCard/prime-framework/device/src/prime_l6470.c:1108: warning: passing argument 3 of 'l6470ConfigStruct[(int)j].pfSpiExchangeByte' discards qualifiers from pointer target type
f:/New_Prime_08_08_2014/KeilCompiledLib/FileSytem_SdCard/prime-framework/device/src/prime_l6470.c:1117: warning: passing argument 3 of 'l6470ConfigStruct[(int)j].pfSpiExchangeByte' discards qualifiers from pointer target type
f:/New_Prime_08_08_2014/KeilCompiledLib/FileSytem_SdCard/prime-framework/device/src/prime_l6470.c:1119: warning: passing argument 3 of 'l6470ConfigStruct[(int)j].pfSpiExchangeByte' discards qualifiers from pointer target type
f:/New_Prime_08_08_2014/KeilCompiledLib/FileSytem_SdCard/prime-framework/device/src/prime_l6470.c: In function 'pfL6470softHiZ':
f:/New_Prime_08_08_2014/KeilCompiledLib/FileSytem_SdCard/prime-framework/device/src/prime_l6470.c:1160: warning: passing argument 3 of 'l6470ConfigStruct[(int)j].pfSpiExchangeByte' discards qualifiers from pointer target type
f:/New_Prime_08_08_2014/KeilCompiledLib/FileSytem_SdCard/prime-framework/device/src/prime_l6470.c:1162: warning: passing argument 3 of 'l6470ConfigStruct[(int)j].pfSpiExchangeByte' discards qualifiers from pointer target type
f:/New_Prime_08_08_2014/KeilCompiledLib/FileSytem_SdCard/prime-framework/device/src/prime_l6470.c: In function 'pfL6470hardHiZ':
f:/New_Prime_08_08_2014/KeilCompiledLib/FileSytem_SdCard/prime-framework/device/src/prime_l6470.c:1198: warning: passing argument 3 of 'l6470ConfigStruct[(int)j].pfSpiExchangeByte' discards qualifiers from pointer target type
f:/New_Prime_08_08_2014/KeilCompiledLib/FileSytem_SdCard/prime-framework/device/src/prime_l6470.c:1200: warning: passing argument 3 of 'l6470ConfigStruct[(int)j].pfSpiExchangeByte' discards qualifiers from pointer target type
f:/New_Prime_08_08_2014/KeilCompiledLib/FileSytem_SdCard/prime-framework/device/src/prime_l6470.c: In function 'pfL6470goMark':
f:/New_Prime_08_08_2014/KeilCompiledLib/FileSytem_SdCard/prime-framework/device/src/prime_l6470.c:1237: warning: passing argument 3 of 'l6470ConfigStruct[(int)j].pfSpiExchangeByte' discards qualifiers from pointer target type
f:/New_Prime_08_08_2014/KeilCompiledLib/FileSytem_SdCard/prime-framework/device/src/prime_l6470.c:1239: warning: passing argument 3 of 'l6470ConfigStruct[(int)j].pfSpiExchangeByte' discards qualifiers from pointer target type
f:/New_Prime_08_08_2014/KeilCompiledLib/FileSytem_SdCard/prime-framework/device/src/prime_l6470.c:1252: warning: passing argument 3 of 'l6470ConfigStruct[(int)j].pfSpiExchangeByte' discards qualifiers from pointer target type
f:/New_Prime_08_08_2014/KeilCompiledLib/FileSytem_SdCard/prime-framework/device/src/prime_l6470.c:1254: warning: passing argument 3 of 'l6470ConfigStruct[(int)j].pfSpiExchangeByte' discards qualifiers from pointer target type
f:/New_Prime_08_08_2014/KeilCompiledLib/FileSytem_SdCard/prime-framework/device/src/prime_l6470.c:1263: warning: passing argument 3 of 'l6470ConfigStruct[(int)j].pfSpiExchangeByte' discards qualifiers from pointer target type
f:/New_Prime_08_08_2014/KeilCompiledLib/FileSytem_SdCard/prime-framework/device/src/prime_l6470.c:1265: warning: passing argument 3 of 'l6470ConfigStruct[(int)j].pfSpiExchangeByte' discards qualifiers from pointer target type
f:/New_Prime_08_08_2014/KeilCompiledLib/FileSytem_SdCard/prime-framework/device/src/prime_l6470.c: In function 'pfL6470goTo':
f:/New_Prime_08_08_2014/KeilCompiledLib/FileSytem_SdCard/prime-framework/device/src/prime_l6470.c:1307: warning: passing argument 3 of 'l6470ConfigStruct[(int)j].pfSpiExchangeByte' discards qualifiers from pointer target type
f:/New_Prime_08_08_2014/KeilCompiledLib/FileSytem_SdCard/prime-framework/device/src/prime_l6470.c:1309: warning: passing argument 3 of 'l6470ConfigStruct[(int)j].pfSpiExchangeByte' discards qualifiers from pointer target type
f:/New_Prime_08_08_2014/KeilCompiledLib/FileSytem_SdCard/prime-framework/device/src/prime_l6470.c:1322: warning: passing argument 3 of 'l6470ConfigStruct[(int)j].pfSpiExchangeByte' discards qualifiers from pointer target type
f:/New_Prime_08_08_2014/KeilCompiledLib/FileSytem_SdCard/prime-framework/device/src/prime_l6470.c:1324: warning: passing argument 3 of 'l6470ConfigStruct[(int)j].pfSpiExchangeByte' discards qualifiers from pointer target type
f:/New_Prime_08_08_2014/KeilCompiledLib/FileSytem_SdCard/prime-framework/device/src/prime_l6470.c:1338: warning: passing argument 3 of 'l6470ConfigStruct[(int)j].pfSpiExchangeByte' discards qualifiers from pointer target type
f:/New_Prime_08_08_2014/KeilCompiledLib/FileSytem_SdCard/prime-framework/device/src/prime_l6470.c:1340: warning: passing argument 3 of 'l6470ConfigStruct[(int)j].pfSpiExchangeByte' discards qualifiers from pointer target type
f:/New_Prime_08_08_2014/KeilCompiledLib/FileSytem_SdCard/prime-framework/device/src/prime_l6470.c: In function 'pfL6470goTo_DIR':
f:/New_Prime_08_08_2014/KeilCompiledLib/FileSytem_SdCard/prime-framework/device/src/prime_l6470.c:1382: warning: passing argument 3 of 'l6470ConfigStruct[(int)j].pfSpiExchangeByte' discards qualifiers from pointer target type
f:/New_Prime_08_08_2014/KeilCompiledLib/FileSytem_SdCard/prime-framework/device/src/prime_l6470.c:1384: warning: passing argument 3 of 'l6470ConfigStruct[(int)j].pfSpiExchangeByte' discards qualifiers from pointer target type
f:/New_Prime_08_08_2014/KeilCompiledLib/FileSytem_SdCard/prime-framework/device/src/prime_l6470.c:1397: warning: passing argument 3 of 'l6470ConfigStruct[(int)j].pfSpiExchangeByte' discards qualifiers from pointer target type
f:/New_Prime_08_08_2014/KeilCompiledLib/FileSytem_SdCard/prime-framework/device/src/prime_l6470.c:1399: warning: passing argument 3 of 'l6470ConfigStruct[(int)j].pfSpiExchangeByte' discards qualifiers from pointer target type
f:/New_Prime_08_08_2014/KeilCompiledLib/FileSytem_SdCard/prime-framework/device/src/prime_l6470.c:1413: warning: passing argument 3 of 'l6470ConfigStruct[(int)j].pfSpiExchangeByte' discards qualifiers from pointer target type
f:/New_Prime_08_08_2014/KeilCompiledLib/FileSytem_SdCard/prime-framework/device/src/prime_l6470.c:1415: warning: passing argument 3 of 'l6470ConfigStruct[(int)j].pfSpiExchangeByte' discards qualifiers from pointer target type
f:/New_Prime_08_08_2014/KeilCompiledLib/FileSytem_SdCard/prime-framework/device/src/prime_l6470.c: In function 'pfL6470takeSingleStep':
f:/New_Prime_08_08_2014/KeilCompiledLib/FileSytem_SdCard/prime-framework/device/src/prime_l6470.c:1458: warning: passing argument 3 of 'l6470ConfigStruct[(int)j].pfSpiExchangeByte' discards qualifiers from pointer target type
f:/New_Prime_08_08_2014/KeilCompiledLib/FileSytem_SdCard/prime-framework/device/src/prime_l6470.c:1460: warning: passing argument 3 of 'l6470ConfigStruct[(int)j].pfSpiExchangeByte' discards qualifiers from pointer target type
f:/New_Prime_08_08_2014/KeilCompiledLib/FileSytem_SdCard/prime-framework/device/src/prime_l6470.c:1431: warning: unused variable 'k'
f:/New_Prime_08_08_2014/KeilCompiledLib/FileSytem_SdCard/prime-framework/device/src/prime_l6470.c: In function 'pfL6470setStepClockMode':
f:/New_Prime_08_08_2014/KeilCompiledLib/FileSytem_SdCard/prime-framework/device/src/prime_l6470.c:1506: warning: passing argument 3 of 'l6470ConfigStruct[(int)j].pfSpiExchangeByte' discards qualifiers from pointer target type
f:/New_Prime_08_08_2014/KeilCompiledLib/FileSytem_SdCard/prime-framework/device/src/prime_l6470.c:1508: warning: passing argument 3 of 'l6470ConfigStruct[(int)j].pfSpiExchangeByte' discards qualifiers from pointer target type
f:/New_Prime_08_08_2014/KeilCompiledLib/FileSytem_SdCard/prime-framework/device/src/prime_l6470.c:1521: warning: passing argument 3 of 'l6470ConfigStruct[(int)j].pfSpiExchangeByte' discards qualifiers from pointer target type
f:/New_Prime_08_08_2014/KeilCompiledLib/FileSytem_SdCard/prime-framework/device/src/prime_l6470.c:1523: warning: passing argument 3 of 'l6470ConfigStruct[(int)j].pfSpiExchangeByte' discards qualifiers from pointer target type
f:/New_Prime_08_08_2014/KeilCompiledLib/FileSytem_SdCard/prime-framework/device/src/prime_l6470.c:1532: warning: passing argument 3 of 'l6470ConfigStruct[(int)j].pfSpiExchangeByte' discards qualifiers from pointer target type
f:/New_Prime_08_08_2014/KeilCompiledLib/FileSytem_SdCard/prime-framework/device/src/prime_l6470.c:1534: warning: passing argument 3 of 'l6470ConfigStruct[(int)j].pfSpiExchangeByte' discards qualifiers from pointer target type
f:/New_Prime_08_08_2014/KeilCompiledLib/FileSytem_SdCard/prime-framework/device/src/prime_l6470.c: In function 'pfL6470softStop':
f:/New_Prime_08_08_2014/KeilCompiledLib/FileSytem_SdCard/prime-framework/device/src/prime_l6470.c:1575: warning: passing argument 3 of 'l6470ConfigStruct[(int)j].pfSpiExchangeByte' discards qualifiers from pointer target type
f:/New_Prime_08_08_2014/KeilCompiledLib/FileSytem_SdCard/prime-framework/device/src/prime_l6470.c:1577: warning: passing argument 3 of 'l6470ConfigStruct[(int)j].pfSpiExchangeByte' discards qualifiers from pointer target type
f:/New_Prime_08_08_2014/KeilCompiledLib/FileSytem_SdCard/prime-framework/device/src/prime_l6470.c: In function 'pfL6470hardStop':
f:/New_Prime_08_08_2014/KeilCompiledLib/FileSytem_SdCard/prime-framework/device/src/prime_l6470.c:1614: warning: passing argument 3 of 'l6470ConfigStruct[(int)j].pfSpiExchangeByte' discards qualifiers from pointer target type
f:/New_Prime_08_08_2014/KeilCompiledLib/FileSytem_SdCard/prime-framework/device/src/prime_l6470.c:1616: warning: passing argument 3 of 'l6470ConfigStruct[(int)j].pfSpiExchangeByte' discards qualifiers from pointer target type
f:/New_Prime_08_08_2014/KeilCompiledLib/FileSytem_SdCard/prime-framework/device/src/prime_l6470.c: In function 'pfL6470getStatus':
f:/New_Prime_08_08_2014/KeilCompiledLib/FileSytem_SdCard/prime-framework/device/src/prime_l6470.c:1652: warning: passing argument 3 of 'l6470ConfigStruct[(int)j].pfSpiExchangeByte' discards qualifiers from pointer target type
f:/New_Prime_08_08_2014/KeilCompiledLib/FileSytem_SdCard/prime-framework/device/src/prime_l6470.c:1654: warning: passing argument 3 of 'l6470ConfigStruct[(int)j].pfSpiExchangeByte' discards qualifiers from pointer target type
f:/New_Prime_08_08_2014/KeilCompiledLib/FileSytem_SdCard/prime-framework/device/src/prime_l6470.c: In function 'pfL6470nop':
f:/New_Prime_08_08_2014/KeilCompiledLib/FileSytem_SdCard/prime-framework/device/src/prime_l6470.c:1688: warning: passing argument 3 of 'l6470ConfigStruct[(int)j].pfSpiExchangeByte' discards qualifiers from pointer target type
f:/New_Prime_08_08_2014/KeilCompiledLib/FileSytem_SdCard/prime-framework/device/src/prime_l6470.c: In function 'pfL6470getCurrentPosition':
f:/New_Prime_08_08_2014/KeilCompiledLib/FileSytem_SdCard/prime-framework/device/src/prime_l6470.c:1725: warning: passing argument 3 of 'l6470ConfigStruct[(int)j].pfSpiExchangeByte' discards qualifiers from pointer target type
f:/New_Prime_08_08_2014/KeilCompiledLib/FileSytem_SdCard/prime-framework/device/src/prime_l6470.c:1727: warning: passing argument 3 of 'l6470ConfigStruct[(int)j].pfSpiExchangeByte' discards qualifiers from pointer target type
f:/New_Prime_08_08_2014/KeilCompiledLib/FileSytem_SdCard/prime-framework/device/src/prime_l6470.c: In function 'pfL6470getAccelerationProfile':
f:/New_Prime_08_08_2014/KeilCompiledLib/FileSytem_SdCard/prime-framework/device/src/prime_l6470.c:1771: warning: passing argument 3 of 'l6470ConfigStruct[(int)j].pfSpiExchangeByte' discards qualifiers from pointer target type
f:/New_Prime_08_08_2014/KeilCompiledLib/FileSytem_SdCard/prime-framework/device/src/prime_l6470.c:1773: warning: passing argument 3 of 'l6470ConfigStruct[(int)j].pfSpiExchangeByte' discards qualifiers from pointer target type
f:/New_Prime_08_08_2014/KeilCompiledLib/FileSytem_SdCard/prime-framework/device/src/prime_l6470.c:1785: warning: passing argument 3 of 'l6470ConfigStruct[(int)j].pfSpiExchangeByte' discards qualifiers from pointer target type
f:/New_Prime_08_08_2014/KeilCompiledLib/FileSytem_SdCard/prime-framework/device/src/prime_l6470.c:1787: warning: passing argument 3 of 'l6470ConfigStruct[(int)j].pfSpiExchangeByte' discards qualifiers from pointer target type
f:/New_Prime_08_08_2014/KeilCompiledLib/FileSytem_SdCard/prime-framework/device/src/prime_l6470.c: In function 'pfL6470getSpeed':
f:/New_Prime_08_08_2014/KeilCompiledLib/FileSytem_SdCard/prime-framework/device/src/prime_l6470.c:1828: warning: passing argument 3 of 'l6470ConfigStruct[(int)j].pfSpiExchangeByte' discards qualifiers from pointer target type
f:/New_Prime_08_08_2014/KeilCompiledLib/FileSytem_SdCard/prime-framework/device/src/prime_l6470.c:1830: warning: passing argument 3 of 'l6470ConfigStruct[(int)j].pfSpiExchangeByte' discards qualifiers from pointer target type
f:/New_Prime_08_08_2014/KeilCompiledLib/FileSytem_SdCard/prime-framework/device/src/prime_l6470.c: In function 'pfL6470setAccelerationProfile':
f:/New_Prime_08_08_2014/KeilCompiledLib/FileSytem_SdCard/prime-framework/device/src/prime_l6470.c:1871: warning: passing argument 3 of 'l6470ConfigStruct[(int)j].pfSpiExchangeByte' discards qualifiers from pointer target type
f:/New_Prime_08_08_2014/KeilCompiledLib/FileSytem_SdCard/prime-framework/device/src/prime_l6470.c:1873: warning: passing argument 3 of 'l6470ConfigStruct[(int)j].pfSpiExchangeByte' discards qualifiers from pointer target type
f:/New_Prime_08_08_2014/KeilCompiledLib/FileSytem_SdCard/prime-framework/device/src/prime_l6470.c:1887: warning: passing argument 3 of 'l6470ConfigStruct[(int)j].pfSpiExchangeByte' discards qualifiers from pointer target type
f:/New_Prime_08_08_2014/KeilCompiledLib/FileSytem_SdCard/prime-framework/device/src/prime_l6470.c:1889: warning: passing argument 3 of 'l6470ConfigStruct[(int)j].pfSpiExchangeByte' discards qualifiers from pointer target type
f:/New_Prime_08_08_2014/KeilCompiledLib/FileSytem_SdCard/prime-framework/device/src/prime_l6470.c:1902: warning: passing argument 3 of 'l6470ConfigStruct[(int)j].pfSpiExchangeByte' discards qualifiers from pointer target type
f:/New_Prime_08_08_2014/KeilCompiledLib/FileSytem_SdCard/prime-framework/device/src/prime_l6470.c:1904: warning: passing argument 3 of 'l6470ConfigStruct[(int)j].pfSpiExchangeByte' discards qualifiers from pointer target type
f:/New_Prime_08_08_2014/KeilCompiledLib/FileSytem_SdCard/prime-framework/device/src/prime_l6470.c:1918: warning: passing argument 3 of 'l6470ConfigStruct[(int)j].pfSpiExchangeByte' discards qualifiers from pointer target type
f:/New_Prime_08_08_2014/KeilCompiledLib/FileSytem_SdCard/prime-framework/device/src/prime_l6470.c:1920: warning: passing argument 3 of 'l6470ConfigStruct[(int)j].pfSpiExchangeByte' discards qualifiers from pointer target type
f:/New_Prime_08_08_2014/KeilCompiledLib/FileSytem_SdCard/prime-framework/device/src/prime_l6470.c:1933: warning: passing argument 3 of 'l6470ConfigStruct[(int)j].pfSpiExchangeByte' discards qualifiers from pointer target type
f:/New_Prime_08_08_2014/KeilCompiledLib/FileSytem_SdCard/prime-framework/device/src/prime_l6470.c:1935: warning: passing argument 3 of 'l6470ConfigStruct[(int)j].pfSpiExchangeByte' discards qualifiers from pointer target type
f:/New_Prime_08_08_2014/KeilCompiledLib/FileSytem_SdCard/prime-framework/device/src/prime_l6470.c: In function 'pfL6470paramHandler':
f:/New_Prime_08_08_2014/KeilCompiledLib/FileSytem_SdCard/prime-framework/device/src/prime_l6470.c:1998: warning: passing argument 3 of 'l6470ConfigStruct[(int)j].pfSpiExchangeByte' discards qualifiers from pointer target type
f:/New_Prime_08_08_2014/KeilCompiledLib/FileSytem_SdCard/prime-framework/device/src/prime_l6470.c:2010: warning: passing argument 3 of 'l6470ConfigStruct[(int)j].pfSpiExchangeByte' discards qualifiers from pointer target type
f:/New_Prime_08_08_2014/KeilCompiledLib/FileSytem_SdCard/prime-framework/device/src/prime_l6470.c:2022: warning: passing argument 3 of 'l6470ConfigStruct[(int)j].pfSpiExchangeByte' discards qualifiers from pointer target type
f:/New_Prime_08_08_2014/KeilCompiledLib/FileSytem_SdCard/prime-framework/device/src/prime_l6470.c:2034: warning: passing argument 3 of 'l6470ConfigStruct[(int)j].pfSpiExchangeByte' discards qualifiers from pointer target type
f:/New_Prime_08_08_2014/KeilCompiledLib/FileSytem_SdCard/prime-framework/device/src/prime_l6470.c:2050: warning: passing argument 3 of 'l6470ConfigStruct[(int)j].pfSpiExchangeByte' discards qualifiers from pointer target type
f:/New_Prime_08_08_2014/KeilCompiledLib/FileSytem_SdCard/prime-framework/device/src/prime_l6470.c:2062: warning: passing argument 3 of 'l6470ConfigStruct[(int)j].pfSpiExchangeByte' discards qualifiers from pointer target type
f:/New_Prime_08_08_2014/KeilCompiledLib/FileSytem_SdCard/prime-framework/device/src/prime_l6470.c:2074: warning: passing argument 3 of 'l6470ConfigStruct[(int)j].pfSpiExchangeByte' discards qualifiers from pointer target type
f:/New_Prime_08_08_2014/KeilCompiledLib/FileSytem_SdCard/prime-framework/device/src/prime_l6470.c:2086: warning: passing argument 3 of 'l6470ConfigStruct[(int)j].pfSpiExchangeByte' discards qualifiers from pointer target type
f:/New_Prime_08_08_2014/KeilCompiledLib/FileSytem_SdCard/prime-framework/device/src/prime_l6470.c:2098: warning: passing argument 3 of 'l6470ConfigStruct[(int)j].pfSpiExchangeByte' discards qualifiers from pointer target type
f:/New_Prime_08_08_2014/KeilCompiledLib/FileSytem_SdCard/prime-framework/device/src/prime_l6470.c:2110: warning: passing argument 3 of 'l6470ConfigStruct[(int)j].pfSpiExchangeByte' discards qualifiers from pointer target type
f:/New_Prime_08_08_2014/KeilCompiledLib/FileSytem_SdCard/prime-framework/device/src/prime_l6470.c:2122: warning: passing argument 3 of 'l6470ConfigStruct[(int)j].pfSpiExchangeByte' discards qualifiers from pointer target type
f:/New_Prime_08_08_2014/KeilCompiledLib/FileSytem_SdCard/prime-framework/device/src/prime_l6470.c:2134: warning: passing argument 3 of 'l6470ConfigStruct[(int)j].pfSpiExchangeByte' discards qualifiers from pointer target type
f:/New_Prime_08_08_2014/KeilCompiledLib/FileSytem_SdCard/prime-framework/device/src/prime_l6470.c:2146: warning: passing argument 3 of 'l6470ConfigStruct[(int)j].pfSpiExchangeByte' discards qualifiers from pointer target type
f:/New_Prime_08_08_2014/KeilCompiledLib/FileSytem_SdCard/prime-framework/device/src/prime_l6470.c:2166: warning: passing argument 3 of 'l6470ConfigStruct[(int)j].pfSpiExchangeByte' discards qualifiers from pointer target type
f:/New_Prime_08_08_2014/KeilCompiledLib/FileSytem_SdCard/prime-framework/device/src/prime_l6470.c: In function 'pfL6470dataTransfer':
f:/New_Prime_08_08_2014/KeilCompiledLib/FileSytem_SdCard/prime-framework/device/src/prime_l6470.c:2195: warning: passing argument 3 of 'l6470ConfigStruct[(int)j].pfSpiExchangeByte' discards qualifiers from pointer target type
f:/New_Prime_08_08_2014/KeilCompiledLib/FileSytem_SdCard/prime-framework/device/src/prime_l6470.c:2197: warning: passing argument 3 of 'l6470ConfigStruct[(int)j].pfSpiExchangeByte' discards qualifiers from pointer target type
f:/New_Prime_08_08_2014/KeilCompiledLib/FileSytem_SdCard/prime-framework/device/src/prime_l6470.c:2202: warning: left shift count >= width of type
f:/New_Prime_08_08_2014/KeilCompiledLib/FileSytem_SdCard/prime-framework/device/src/prime_l6470.c:2211: warning: passing argument 3 of 'l6470ConfigStruct[(int)j].pfSpiExchangeByte' discards qualifiers from pointer target type
f:/New_Prime_08_08_2014/KeilCompiledLib/FileSytem_SdCard/prime-framework/device/src/prime_l6470.c:2213: warning: passing argument 3 of 'l6470ConfigStruct[(int)j].pfSpiExchangeByte' discards qualifiers from pointer target type
f:/New_Prime_08_08_2014/KeilCompiledLib/FileSytem_SdCard/prime-framework/device/src/prime_l6470.c:2227: warning: passing argument 3 of 'l6470ConfigStruct[(int)j].pfSpiExchangeByte' discards qualifiers from pointer target type
f:/New_Prime_08_08_2014/KeilCompiledLib/FileSytem_SdCard/prime-framework/device/src/prime_l6470.c:2229: warning: passing argument 3 of 'l6470ConfigStruct[(int)j].pfSpiExchangeByte' discards qualifiers from pointer target type
In file included from f:/New_Prime_08_08_2014/KeilCompiledLib/FileSytem_SdCard/prime-framework/include/prime_framework.h:17,
                 from f:/New_Prime_08_08_2014/KeilCompiledLib/FileSytem_SdCard/prime-framework/device/src/prime_vcnl4000.c:1:
f:/New_Prime_08_08_2014/KeilCompiledLib/FileSytem_SdCard/prime-framework/common/include/prime_compiler.h:65:1: warning: "PF_C_STATIC_INLINE" redefined
f:/New_Prime_08_08_2014/KeilCompiledLib/FileSytem_SdCard/prime-framework/common/include/prime_compiler.h:53:1: warning: this is the location of the previous definition
In file included from f:/New_Prime_08_08_2014/KeilCompiledLib/FileSytem_SdCard/prime-framework/include/prime_framework.h:17,
                 from f:/New_Prime_08_08_2014/KeilCompiledLib/FileSytem_SdCard/prime-framework/device/src/prime_adxl345.c:1:
f:/New_Prime_08_08_2014/KeilCompiledLib/FileSytem_SdCard/prime-framework/common/include/prime_compiler.h:65:1: warning: "PF_C_STATIC_INLINE" redefined
f:/New_Prime_08_08_2014/KeilCompiledLib/FileSytem_SdCard/prime-framework/common/include/prime_compiler.h:53:1: warning: this is the location of the previous definition
In file included from f:/New_Prime_08_08_2014/KeilCompiledLib/FileSytem_SdCard/prime-framework/include/prime_framework.h:17,
                 from f:/New_Prime_08_08_2014/KeilCompiledLib/FileSytem_SdCard/prime-framework/device/src/prime_hmc5883compass.c:1:
f:/New_Prime_08_08_2014/KeilCompiledLib/FileSytem_SdCard/prime-framework/common/include/prime_compiler.h:65:1: warning: "PF_C_STATIC_INLINE" redefined
f:/New_Prime_08_08_2014/KeilCompiledLib/FileSytem_SdCard/prime-framework/common/include/prime_compiler.h:53:1: warning: this is the location of the previous definition
f:/New_Prime_08_08_2014/KeilCompiledLib/FileSytem_SdCard/prime-framework/device/src/prime_hmc5883compass.c: In function 'pfHMC5883compassGetHeading':
f:/New_Prime_08_08_2014/KeilCompiledLib/FileSytem_SdCard/prime-framework/device/src/prime_hmc5883compass.c:105: warning: unused variable 'j'
f:/New_Prime_08_08_2014/KeilCompiledLib/FileSytem_SdCard/prime-framework/device/src/prime_hmc5883compass.c:105: warning: unused variable 'i'
In file included from f:/New_Prime_08_08_2014/KeilCompiledLib/FileSytem_SdCard/prime-framework/include/prime_framework.h:17,
                 from f:/New_Prime_08_08_2014/KeilCompiledLib/FileSytem_SdCard/prime-framework/device/src/prime_mpu6050.c:1:
f:/New_Prime_08_08_2014/KeilCompiledLib/FileSytem_SdCard/prime-framework/common/include/prime_compiler.h:65:1: warning: "PF_C_STATIC_INLINE" redefined
f:/New_Prime_08_08_2014/KeilCompiledLib/FileSytem_SdCard/prime-framework/common/include/prime_compiler.h:53:1: warning: this is the location of the previous definition
In file included from f:/New_Prime_08_08_2014/KeilCompiledLib/FileSytem_SdCard/prime-framework/include/prime_framework.h:17,
                 from f:/New_Prime_08_08_2014/KeilCompiledLib/FileSytem_SdCard/prime-framework/device/src/prime_lsm303.c:1:
f:/New_Prime_08_08_2014/KeilCompiledLib/FileSytem_SdCard/prime-framework/common/include/prime_compiler.h:65:1: warning: "PF_C_STATIC_INLINE" redefined
f:/New_Prime_08_08_2014/KeilCompiledLib/FileSytem_SdCard/prime-framework/common/include/prime_compiler.h:53:1: warning: this is the location of the previous definition
In file included from f:/New_Prime_08_08_2014/KeilCompiledLib/FileSytem_SdCard/prime-framework/include/prime_framework.h:17,
                 from f:/New_Prime_08_08_2014/KeilCompiledLib/FileSytem_SdCard/prime-framework/device/src/prime_gps.c:1:
f:/New_Prime_08_08_2014/KeilCompiledLib/FileSytem_SdCard/prime-framework/common/include/prime_compiler.h:65:1: warning: "PF_C_STATIC_INLINE" redefined
f:/New_Prime_08_08_2014/KeilCompiledLib/FileSytem_SdCard/prime-framework/common/include/prime_compiler.h:53:1: warning: this is the location of the previous definition
f:/New_Prime_08_08_2014/KeilCompiledLib/FileSytem_SdCard/prime-framework/device/src/prime_gps.c: In function 'pfGpsSetSequence':
f:/New_Prime_08_08_2014/KeilCompiledLib/FileSytem_SdCard/prime-framework/device/src/prime_gps.c:420: warning: unused variable 'len1'
f:/New_Prime_08_08_2014/KeilCompiledLib/FileSytem_SdCard/prime-framework/device/src/prime_gps.c: At top level:
f:/New_Prime_08_08_2014/KeilCompiledLib/FileSytem_SdCard/prime-framework/device/src/prime_gps.c:38: warning: 'retryCount' defined but not used
In file included from f:/New_Prime_08_08_2014/KeilCompiledLib/FileSytem_SdCard/prime-framework/include/prime_framework.h:17,
                 from f:/New_Prime_08_08_2014/KeilCompiledLib/FileSytem_SdCard/prime-framework/device/src/prime_bluetooth.c:1:
f:/New_Prime_08_08_2014/KeilCompiledLib/FileSytem_SdCard/prime-framework/common/include/prime_compiler.h:65:1: warning: "PF_C_STATIC_INLINE" redefined
f:/New_Prime_08_08_2014/KeilCompiledLib/FileSytem_SdCard/prime-framework/common/include/prime_compiler.h:53:1: warning: this is the location of the previous definition
In file included from f:/New_Prime_08_08_2014/KeilCompiledLib/FileSytem_SdCard/prime-framework/include/prime_framework.h:17,
                 from f:/New_Prime_08_08_2014/KeilCompiledLib/FileSytem_SdCard/prime-framework/device/src/prime_tcs230coloursensor.c:1:
f:/New_Prime_08_08_2014/KeilCompiledLib/FileSytem_SdCard/prime-framework/common/include/prime_compiler.h:65:1: warning: "PF_C_STATIC_INLINE" redefined
f:/New_Prime_08_08_2014/KeilCompiledLib/FileSytem_SdCard/prime-framework/common/include/prime_compiler.h:53:1: warning: this is the location of the previous definition
In file included from f:/New_Prime_08_08_2014/KeilCompiledLib/FileSytem_SdCard/prime-framework/include/prime_framework.h:17,
                 from f:/New_Prime_08_08_2014/KeilCompiledLib/FileSytem_SdCard/prime-framework/device/src/prime_tsl1401cs_linearCamera.c:1:
f:/New_Prime_08_08_2014/KeilCompiledLib/FileSytem_SdCard/prime-framework/common/include/prime_compiler.h:65:1: warning: "PF_C_STATIC_INLINE" redefined
f:/New_Prime_08_08_2014/KeilCompiledLib/FileSytem_SdCard/prime-framework/common/include/prime_compiler.h:53:1: warning: this is the location of the previous definition
In file included from f:/New_Prime_08_08_2014/KeilCompiledLib/FileSytem_SdCard/prime-framework/include/prime_framework.h:17,
                 from f:/New_Prime_08_08_2014/KeilCompiledLib/FileSytem_SdCard/prime-framework/device/src/prime_mmc.c:8:
f:/New_Prime_08_08_2014/KeilCompiledLib/FileSytem_SdCard/prime-framework/common/include/prime_compiler.h:65:1: warning: "PF_C_STATIC_INLINE" redefined
f:/New_Prime_08_08_2014/KeilCompiledLib/FileSytem_SdCard/prime-framework/common/include/prime_compiler.h:53:1: warning: this is the location of the previous definition
In file included from f:/New_Prime_08_08_2014/KeilCompiledLib/FileSytem_SdCard/prime-framework/include/prime_framework.h:17,
                 from f:/New_Prime_08_08_2014/KeilCompiledLib/FileSytem_SdCard/prime-framework/device/src/prime_mb1200.c:1:
f:/New_Prime_08_08_2014/KeilCompiledLib/FileSytem_SdCard/prime-framework/common/include/prime_compiler.h:65:1: warning: "PF_C_STATIC_INLINE" redefined
f:/New_Prime_08_08_2014/KeilCompiledLib/FileSytem_SdCard/prime-framework/common/include/prime_compiler.h:53:1: warning: this is the location of the previous definition
f:/New_Prime_08_08_2014/KeilCompiledLib/FileSytem_SdCard/prime-framework/device/src/prime_mb1200.c:5: warning: missing braces around initializer
f:/New_Prime_08_08_2014/KeilCompiledLib/FileSytem_SdCard/prime-framework/device/src/prime_mb1200.c:5: warning: (near initialization for 'ultrasonicMb1200ConfigStruct[0]')
f:/New_Prime_08_08_2014/KeilCompiledLib/FileSytem_SdCard/prime-framework/device/src/prime_mb1200.c: In function 'pfUltrasonicMb1200GetDistance':
f:/New_Prime_08_08_2014/KeilCompiledLib/FileSytem_SdCard/prime-framework/device/src/prime_mb1200.c:48: warning: unused variable 'mVtg'
f:/New_Prime_08_08_2014/KeilCompiledLib/FileSytem_SdCard/prime-framework/device/src/prime_mb1200.c:47: warning: unused variable 'dist'
f:/New_Prime_08_08_2014/KeilCompiledLib/FileSytem_SdCard/prime-framework/device/src/prime_mb1200.c:47: warning: unused variable 'timerTicks'
f:/New_Prime_08_08_2014/KeilCompiledLib/FileSytem_SdCard/prime-framework/device/src/prime_mb1200.c:46: warning: unused variable 'status'
mkdir: cannot create directory `/f/New_Prime_08_08_2014/KeilCompiledLib/FileSytem_SdCard/prime-framework/extensions/fatfs/obj': File exists
make: [pf_filesys_mkdir] Error 1 (ignored)
In file included from f:/New_Prime_08_08_2014/KeilCompiledLib/FileSytem_SdCard/prime-framework/include/prime_framework.h:17,
                 from f:/New_Prime_08_08_2014/KeilCompiledLib/FileSytem_SdCard/prime-framework/extensions/fatfs/src/prime_diskio.c:10:
f:/New_Prime_08_08_2014/KeilCompiledLib/FileSytem_SdCard/prime-framework/common/include/prime_compiler.h:65:1: warning: "PF_C_STATIC_INLINE" redefined
f:/New_Prime_08_08_2014/KeilCompiledLib/FileSytem_SdCard/prime-framework/common/include/prime_compiler.h:53:1: warning: this is the location of the previous definition
In file included from f:/New_Prime_08_08_2014/KeilCompiledLib/FileSytem_SdCard/prime-framework/include/prime_framework.h:17,
                 from f:/New_Prime_08_08_2014/KeilCompiledLib/FileSytem_SdCard/prime-framework/extensions/fatfs/src/prime_fatfs.c:1:
f:/New_Prime_08_08_2014/KeilCompiledLib/FileSytem_SdCard/prime-framework/common/include/prime_compiler.h:65:1: warning: "PF_C_STATIC_INLINE" redefined
f:/New_Prime_08_08_2014/KeilCompiledLib/FileSytem_SdCard/prime-framework/common/include/prime_compiler.h:53:1: warning: this is the location of the previous definition
f:/New_Prime_08_08_2014/KeilCompiledLib/FileSytem_SdCard/prime-framework/extensions/fatfs/src/prime_fatfs.c: In function 'pfFsCreateName':
f:/New_Prime_08_08_2014/KeilCompiledLib/FileSytem_SdCard/prime-framework/extensions/fatfs/src/prime_fatfs.c:1481: warning: pointer targets in passing argument 1 of 'pfCheckChar' differ in signedness
mkdir: cannot create directory `/f/New_Prime_08_08_2014/KeilCompiledLib/FileSytem_SdCard/prime-framework/boards/obj': File exists
make: [pf_boards_mkdir] Error 1 (ignored)
In file included from f:/New_Prime_08_08_2014/KeilCompiledLib/FileSytem_SdCard/prime-framework/include/prime_framework.h:17,
                 from f:/New_Prime_08_08_2014/KeilCompiledLib/FileSytem_SdCard/prime-framework/boards/src/prime_andromedaBoardConfig.c:1:
f:/New_Prime_08_08_2014/KeilCompiledLib/FileSytem_SdCard/prime-framework/common/include/prime_compiler.h:65:1: warning: "PF_C_STATIC_INLINE" redefined
f:/New_Prime_08_08_2014/KeilCompiledLib/FileSytem_SdCard/prime-framework/common/include/prime_compiler.h:53:1: warning: this is the location of the previous definition
In file included from f:/New_Prime_08_08_2014/KeilCompiledLib/FileSytem_SdCard/prime-framework/include/prime_framework.h:17,
                 from f:/New_Prime_08_08_2014/KeilCompiledLib/FileSytem_SdCard/prime-framework/boards/src/prime_cheetah-CBBoardConfig.c:1:
f:/New_Prime_08_08_2014/KeilCompiledLib/FileSytem_SdCard/prime-framework/common/include/prime_compiler.h:65:1: warning: "PF_C_STATIC_INLINE" redefined
f:/New_Prime_08_08_2014/KeilCompiledLib/FileSytem_SdCard/prime-framework/common/include/prime_compiler.h:53:1: warning: this is the location of the previous definition
In file included from f:/New_Prime_08_08_2014/KeilCompiledLib/FileSytem_SdCard/prime-framework/include/prime_framework.h:17,
                 from f:/New_Prime_08_08_2014/KeilCompiledLib/FileSytem_SdCard/prime-framework/boards/src/prime_cruxBoardConfig.c:1:
f:/New_Prime_08_08_2014/KeilCompiledLib/FileSytem_SdCard/prime-framework/common/include/prime_compiler.h:65:1: warning: "PF_C_STATIC_INLINE" redefined
f:/New_Prime_08_08_2014/KeilCompiledLib/FileSytem_SdCard/prime-framework/common/include/prime_compiler.h:53:1: warning: this is the location of the previous definition
In file included from f:/New_Prime_08_08_2014/KeilCompiledLib/FileSytem_SdCard/prime-framework/include/prime_framework.h:17,
                 from f:/New_Prime_08_08_2014/KeilCompiledLib/FileSytem_SdCard/prime-framework/boards/src/prime_hydraBoardConfig.c:1:
f:/New_Prime_08_08_2014/KeilCompiledLib/FileSytem_SdCard/prime-framework/common/include/prime_compiler.h:65:1: warning: "PF_C_STATIC_INLINE" redefined
f:/New_Prime_08_08_2014/KeilCompiledLib/FileSytem_SdCard/prime-framework/common/include/prime_compiler.h:53:1: warning: this is the location of the previous definition
In file included from f:/New_Prime_08_08_2014/KeilCompiledLib/FileSytem_SdCard/prime-framework/include/prime_framework.h:17,
                 from f:/New_Prime_08_08_2014/KeilCompiledLib/FileSytem_SdCard/prime-framework/boards/src/prime_xlynx-CbBoardConfig.c:1:
f:/New_Prime_08_08_2014/KeilCompiledLib/FileSytem_SdCard/prime-framework/common/include/prime_compiler.h:65:1: warning: "PF_C_STATIC_INLINE" redefined
f:/New_Prime_08_08_2014/KeilCompiledLib/FileSytem_SdCard/prime-framework/common/include/prime_compiler.h:53:1: warning: this is the location of the previous definition
mkdir: cannot create directory `/f/New_Prime_08_08_2014/KeilCompiledLib/FileSytem_SdCard/prime-framework/extensions/pid/obj': File exists
make: [pid_mkdir] Error 1 (ignored)
In file included from f:/New_Prime_08_08_2014/KeilCompiledLib/FileSytem_SdCard/prime-framework/include/prime_framework.h:17,
                 from f:/New_Prime_08_08_2014/KeilCompiledLib/FileSytem_SdCard/prime-framework/extensions/pid/src/prime_pid.c:2:
f:/New_Prime_08_08_2014/KeilCompiledLib/FileSytem_SdCard/prime-framework/common/include/prime_compiler.h:65:1: warning: "PF_C_STATIC_INLINE" redefined
f:/New_Prime_08_08_2014/KeilCompiledLib/FileSytem_SdCard/prime-framework/common/include/prime_compiler.h:53:1: warning: this is the location of the previous definition
f:/New_Prime_08_08_2014/KeilCompiledLib/FileSytem_SdCard/prime-framework/extensions/pid/src/prime_pid.c:11:2: warning: #warning Using interger calculation for PID
f:/New_Prime_08_08_2014/KeilCompiledLib/FileSytem_SdCard/prime-framework/extensions/pid/src/prime_pid.c:16: warning: missing braces around initializer
f:/New_Prime_08_08_2014/KeilCompiledLib/FileSytem_SdCard/prime-framework/extensions/pid/src/prime_pid.c:16: warning: (near initialization for 'contextPid[0]')
f:/New_Prime_08_08_2014/KeilCompiledLib/FileSytem_SdCard/prime-framework/extensions/pid/src/prime_pid.c:17: warning: missing braces around initializer
f:/New_Prime_08_08_2014/KeilCompiledLib/FileSytem_SdCard/prime-framework/extensions/pid/src/prime_pid.c:17: warning: (near initialization for 'pidConfig[0]')
f:/New_Prime_08_08_2014/KeilCompiledLib/FileSytem_SdCard/prime-framework/extensions/pid/src/prime_pid.c:236:7: warning: extra tokens at end of #else directive
f:/New_Prime_08_08_2014/KeilCompiledLib/FileSytem_SdCard/prime-framework/extensions/pid/src/prime_pid.c: In function 'pfPidUpdate':
f:/New_Prime_08_08_2014/KeilCompiledLib/FileSytem_SdCard/prime-framework/extensions/pid/src/prime_pid.c:304: warning: unused variable 'error'
f:/New_Prime_08_08_2014/KeilCompiledLib/FileSytem_SdCard/prime-framework/extensions/pid/src/prime_pid.c: In function 'pfPidChangeSetPoint':
f:/New_Prime_08_08_2014/KeilCompiledLib/FileSytem_SdCard/prime-framework/extensions/pid/src/prime_pid.c:401: warning: unused variable 'fixedNum'
mkdir: cannot create directory `/f/New_Prime_08_08_2014/KeilCompiledLib/FileSytem_SdCard/prime-framework/lib': File exists
make: [Build] Error 1 (ignored)
mkdir: cannot create directory `/f/New_Prime_08_08_2014/KeilCompiledLib/FileSytem_SdCard/prime-framework/install': File exists
make: [Install] Error 1 (ignored)
mkdir: cannot create directory `/f/New_Prime_08_08_2014/KeilCompiledLib/FileSytem_SdCard/prime-framework/install/include': File exists
make: [Install] Error 1 (ignored)
mkdir: cannot create directory `/f/New_Prime_08_08_2014/KeilCompiledLib/FileSytem_SdCard/prime-framework/install/lib': File exists
make: [Install] Error 1 (ignored)
